Wave scattering forces ----- File created by OW3D-Seakeeping ----- Thu Jun  1 15:09:37 2023
	Number of frequencies:107
	Froude number:1.514456e-02
	Beta:0.000000e+00
1.684043e+00   1.640680e+00	1	   2.904748e+04   2.731110e+05   2.746513e+05
1.780291e+00   1.731828e+00	1	   9.017146e+03   2.092295e+05   2.094237e+05
1.876838e+00   1.822977e+00	1	  -1.180478e+04   1.405158e+05   1.410108e+05
1.973690e+00   1.914126e+00	1	  -3.330227e+04   6.859619e+04   7.625273e+04
2.070847e+00   2.005275e+00	1	  -5.533269e+04  -4.710188e+03   5.553280e+04
2.168313e+00   2.096424e+00	1	  -7.772301e+04  -7.741215e+04   1.096973e+05
2.266092e+00   2.187573e+00	1	  -1.002659e+05  -1.473749e+05   1.782487e+05
2.364186e+00   2.278722e+00	1	  -1.227158e+05  -2.123552e+05   2.452629e+05
2.462598e+00   2.369870e+00	1	  -1.447847e+05  -2.700450e+05   3.064097e+05
2.561331e+00   2.461019e+00	1	  -1.661384e+05  -3.181232e+05   3.588932e+05
2.660389e+00   2.552168e+00	1	  -1.863931e+05  -3.543161e+05   4.003527e+05
2.759775e+00   2.643317e+00	1	  -2.051122e+05  -3.764676e+05   4.287177e+05
2.859492e+00   2.734466e+00	1	  -2.218044e+05  -3.826178e+05   4.422596e+05
2.959543e+00   2.825615e+00	1	  -2.359226e+05  -3.710916e+05   4.397368e+05
3.059931e+00   2.916764e+00	1	  -2.468648e+05  -3.405943e+05   4.206503e+05
3.160661e+00   3.007912e+00	1	  -2.539767e+05  -2.903152e+05   3.857293e+05
3.261736e+00   3.099061e+00	1	  -2.565575e+05  -2.200371e+05   3.379912e+05
3.363159e+00   3.190210e+00	1	  -2.538683e+05  -1.302480e+05   2.853307e+05
3.464933e+00   3.281359e+00	1	  -2.451450e+05  -2.225432e+04   2.461531e+05
3.567064e+00   3.372508e+00	1	  -2.296166e+05   1.017108e+05   2.511351e+05
3.669553e+00   3.463657e+00	1	  -2.065278e+05   2.383870e+05   3.154078e+05
3.772406e+00   3.554806e+00	1	  -1.751700e+05   3.834019e+05   4.215229e+05
3.875625e+00   3.645954e+00	1	  -1.349188e+05   5.312076e+05   5.480735e+05
3.979216e+00   3.737103e+00	1	  -8.528063e+04   6.750489e+05   6.804144e+05
6.142078e+01   3.737103e+00	1	   2.432027e+02   2.413070e+02   3.426027e+02
6.152437e+01   3.645954e+00	1	   2.221750e+02   2.189663e+02   3.119423e+02
6.162759e+01   3.554806e+00	1	   1.997739e+02   1.919915e+02   2.770747e+02
6.173045e+01   3.463657e+00	1	   1.764750e+02   1.620430e+02   2.395858e+02
6.183294e+01   3.372508e+00	1	   1.527373e+02   1.305867e+02   2.009517e+02
6.193507e+01   3.281359e+00	1	   1.289958e+02   9.888360e+01   1.625358e+02
6.203684e+01   3.190210e+00	1	   1.056538e+02   6.798861e+01   1.256390e+02
6.213826e+01   3.099061e+00	1	   8.307760e+01   3.875521e+01   9.167254e+01
6.223934e+01   3.007912e+00	1	   6.159282e+01   1.184599e+01   6.272163e+01
6.234007e+01   2.916764e+00	1	   4.148124e+01  -1.225348e+01   4.325322e+01
6.244046e+01   2.825615e+00	1	   2.297957e+01  -3.321818e+01   4.039194e+01
6.254051e+01   2.734466e+00	1	   6.278999e+00  -5.086573e+01   5.125181e+01
6.264022e+01   2.643317e+00	1	  -8.474305e+00  -6.513772e+01   6.568665e+01
6.273961e+01   2.552168e+00	1	  -2.117783e+01  -7.608118e+01   7.897370e+01
6.283867e+01   2.461019e+00	1	  -3.177075e+01  -8.383037e+01   8.964883e+01
6.293740e+01   2.369870e+00	1	  -4.023145e+01  -8.858958e+01   9.729688e+01
6.303581e+01   2.278722e+00	1	  -4.657455e+01  -9.061698e+01   1.018854e+02
6.313391e+01   2.187573e+00	1	  -5.084776e+01  -9.020986e+01   1.035534e+02
6.323169e+01   2.096424e+00	1	  -5.312847e+01  -8.769129e+01   1.025300e+02
6.332915e+01   2.005275e+00	1	  -5.352021e+01  -8.339830e+01   9.909435e+01
6.342631e+01   1.914126e+00	1	  -5.214912e+01  -7.767151e+01   9.355423e+01
6.352316e+01   1.822977e+00	1	  -4.916043e+01  -7.084626e+01   8.623189e+01
6.361971e+01   1.731828e+00	1	  -4.471497e+01  -6.324513e+01   7.745563e+01
6.371596e+01   1.640680e+00	1	  -3.898587e+01  -5.517183e+01   6.755611e+01
6.381191e+01   1.549531e+00	1	  -3.215533e+01  -4.690619e+01   5.686964e+01
6.390756e+01   1.458382e+00	1	  -2.441160e+01  -3.870045e+01   4.575643e+01
6.400292e+01   1.367233e+00	1	  -1.594613e+01  -3.077643e+01   3.466220e+01
6.409800e+01   1.276084e+00	1	  -6.950920e+00  -2.332374e+01   2.433746e+01
6.419278e+01   1.184935e+00	1	   2.383948e+00  -1.649868e+01   1.667002e+01
6.428728e+01   1.093786e+00	1	   1.187255e+01  -1.042401e+01   1.579928e+01
6.438150e+01   1.002637e+00	1	   2.133518e+01  -5.189238e+00   2.195719e+01
6.447544e+01   9.114886e-01	1	   3.060020e+01  -8.515263e-01   3.061204e+01
6.456910e+01   8.203398e-01	1	   3.950572e+01   2.562962e+00   3.958877e+01
6.466249e+01   7.291909e-01	1	   4.790108e+01   5.057291e+00   4.816731e+01
6.475561e+01   6.380420e-01	1	   5.564817e+01   6.661647e+00   5.604548e+01
6.484846e+01   5.468932e-01	1	   6.262254e+01   7.430940e+00   6.306188e+01
6.494103e+01   4.557443e-01	1	   6.871444e+01   7.442173e+00   6.911628e+01
6.503335e+01   3.645954e-01	1	   7.382963e+01   6.791608e+00   7.414135e+01
6.512540e+01   2.734466e-01	1	   7.789008e+01   5.591776e+00   7.809054e+01
6.521719e+01   1.822977e-01	1	   8.083452e+01   3.968364e+00   8.093187e+01
6.530872e+01   9.114886e-02	1	   8.261889e+01   2.057005e+00   8.264449e+01
6.540000e+01   0.000000e+00	1	   8.321664e+01   0.000000e+00   8.321664e+01
6.549102e+01   9.114886e-02	1	  -1.475495e+02  -1.675317e+02   2.232436e+02
6.558179e+01   1.822977e-01	1	  -1.153529e+01  -3.258116e+02   3.260157e+02
6.567231e+01   2.734466e-01	1	   2.123093e+02  -4.657439e+02   5.118522e+02
6.576259e+01   3.645954e-01	1	   5.197396e+02  -5.785446e+02   7.777166e+02
6.585261e+01   4.557443e-01	1	   9.048609e+02  -6.558950e+02   1.117574e+03
6.594239e+01   5.468932e-01	1	   1.360178e+03  -6.900937e+02   1.525225e+03
6.603194e+01   6.380420e-01	1	   1.876656e+03  -6.742054e+02   1.994089e+03
6.612124e+01   7.291909e-01	1	   2.443804e+03  -6.022047e+02   2.516909e+03
6.621030e+01   8.203398e-01	1	   3.049768e+03  -4.691158e+02   3.085637e+03
6.629913e+01   9.114886e-01	1	   3.681443e+03  -2.711443e+02   3.691414e+03
6.638772e+01   1.002637e+00	1	   4.324606e+03  -5.801117e+00   4.324610e+03
6.647608e+01   1.093786e+00	1	   4.964067e+03   3.279838e+02   4.974891e+03
6.656421e+01   1.184935e+00	1	   5.583842e+03   7.297608e+02   5.631327e+03
6.665211e+01   1.276084e+00	1	   6.167342e+03   1.197474e+03   6.282519e+03
6.673979e+01   1.367233e+00	1	   6.697594e+03   1.727393e+03   6.916766e+03
6.682723e+01   1.458382e+00	1	   7.157478e+03   2.314065e+03   7.522260e+03
6.691446e+01   1.549531e+00	1	   7.529991e+03   2.950295e+03   8.087336e+03
6.700146e+01   1.640680e+00	1	   7.798536e+03   3.627145e+03   8.600776e+03
6.708825e+01   1.731828e+00	1	   7.947236e+03   4.333976e+03   9.052177e+03
6.717481e+01   1.822977e+00	1	   7.961265e+03   5.058524e+03   9.432413e+03
6.726116e+01   1.914126e+00	1	   7.827215e+03   5.787009e+03   9.734206e+03
6.734729e+01   2.005275e+00	1	   7.533468e+03   6.504305e+03   9.952845e+03
6.743321e+01   2.096424e+00	1	   7.070594e+03   7.194147e+03   1.008707e+04
6.751892e+01   2.187573e+00	1	   6.431761e+03   7.839405e+03   1.014021e+04
6.760442e+01   2.278722e+00	1	   5.613151e+03   8.422405e+03   1.012148e+04
6.768971e+01   2.369870e+00	1	   4.614373e+03   8.925329e+03   1.004758e+04
6.777479e+01   2.461019e+00	1	   3.438871e+03   9.330666e+03   9.944202e+03
6.785966e+01   2.552168e+00	1	   2.094310e+03   9.621742e+03   9.847033e+03
6.794433e+01   2.643317e+00	1	   5.929331e+02   9.783311e+03   9.801262e+03
6.802880e+01   2.734466e+00	1	  -1.048140e+03   9.802210e+03   9.858089e+03
6.811307e+01   2.825615e+00	1	  -2.806666e+03   9.668083e+03   1.006723e+04
6.819713e+01   2.916764e+00	1	  -4.655130e+03   9.374142e+03   1.046636e+04
6.828100e+01   3.007912e+00	1	  -6.560693e+03   8.917977e+03   1.107127e+04
6.836467e+01   3.099061e+00	1	  -8.485286e+03   8.302382e+03   1.187138e+04
6.844814e+01   3.190210e+00	1	  -1.038585e+04   7.536182e+03   1.283199e+04
6.853142e+01   3.281359e+00	1	  -1.221477e+04   6.635024e+03   1.390051e+04
6.861451e+01   3.372508e+00	1	  -1.392052e+04   5.622101e+03   1.501296e+04
6.869740e+01   3.463657e+00	1	  -1.544858e+04   4.528757e+03   1.609870e+04
6.878011e+01   3.554806e+00	1	  -1.674257e+04   3.394934e+03   1.708330e+04
6.886262e+01   3.645954e+00	1	  -1.774574e+04   2.269376e+03   1.789026e+04
6.894495e+01   3.737103e+00	1	  -1.840275e+04   1.209531e+03   1.844245e+04
1.684043e+00   1.640680e+00	2	   3.991392e-36  -8.644629e-36   9.521598e-36
1.780291e+00   1.731828e+00	2	   1.619227e-36  -9.819095e-36   9.951710e-36
1.876838e+00   1.822977e+00	2	  -1.158743e-36  -1.055876e-35   1.062215e-35
1.973690e+00   1.914126e+00	2	  -4.246419e-36  -1.076379e-35   1.157114e-35
2.070847e+00   2.005275e+00	2	  -7.518383e-36  -1.034574e-35   1.278907e-35
2.168313e+00   2.096424e+00	2	  -1.082072e-35  -9.233245e-36   1.422466e-35
2.266092e+00   2.187573e+00	2	  -1.397312e-35  -7.378115e-36   1.580142e-35
2.364186e+00   2.278722e+00	2	  -1.677246e-35  -4.761588e-36   1.743525e-35
2.462598e+00   2.369870e+00	2	  -1.899800e-35  -1.400646e-36   1.904956e-35
2.561331e+00   2.461019e+00	2	  -2.041849e-35   2.645899e-36   2.058921e-35
2.660389e+00   2.552168e+00	2	  -2.080112e-35   7.271824e-36   2.203556e-35
2.759775e+00   2.643317e+00	2	  -1.992265e-35   1.231879e-35   2.342359e-35
2.859492e+00   2.734466e+00	2	  -1.758255e-35   1.757293e-35   2.485868e-35
2.959543e+00   2.825615e+00	2	  -1.361829e-35   2.276320e-35   2.652586e-35
3.059931e+00   2.916764e+00	2	  -7.922419e-36   2.756210e-35   2.867811e-35
3.160661e+00   3.007912e+00	2	  -4.614215e-37   3.158927e-35   3.159264e-35
3.261736e+00   3.099061e+00	2	   8.704369e-36   3.441874e-35   3.550234e-35
3.363159e+00   3.190210e+00	2	   1.940025e-35   3.559046e-35   4.053456e-35
3.464933e+00   3.281359e+00	2	   3.131699e-35   3.462678e-35   4.668798e-35
3.567064e+00   3.372508e+00	2	   4.399218e-35   3.105458e-35   5.384885e-35
3.669553e+00   3.463657e+00	2	   5.679456e-35   2.443370e-35   6.182740e-35
3.772406e+00   3.554806e+00	2	   6.891306e-35   1.439201e-35   7.039986e-35
3.875625e+00   3.645954e+00	2	   7.935282e-35   6.674494e-37   7.935563e-35
3.979216e+00   3.737103e+00	2	   8.694072e-35  -1.684307e-35   8.855720e-35
6.142078e+01   3.737103e+00	2	   8.694072e-35  -1.684307e-35   8.855720e-35
6.152437e+01   3.645954e+00	2	   7.935282e-35   6.674494e-37   7.935563e-35
6.162759e+01   3.554806e+00	2	   6.891306e-35   1.439201e-35   7.039986e-35
6.173045e+01   3.463657e+00	2	   5.679456e-35   2.443370e-35   6.182740e-35
6.183294e+01   3.372508e+00	2	   4.399218e-35   3.105458e-35   5.384885e-35
6.193507e+01   3.281359e+00	2	   3.131699e-35   3.462678e-35   4.668798e-35
6.203684e+01   3.190210e+00	2	   1.940025e-35   3.559046e-35   4.053456e-35
6.213826e+01   3.099061e+00	2	   8.704369e-36   3.441874e-35   3.550234e-35
6.223934e+01   3.007912e+00	2	  -4.614215e-37   3.158927e-35   3.159264e-35
6.234007e+01   2.916764e+00	2	  -7.922419e-36   2.756210e-35   2.867811e-35
6.244046e+01   2.825615e+00	2	  -1.361829e-35   2.276320e-35   2.652586e-35
6.254051e+01   2.734466e+00	2	  -1.758255e-35   1.757293e-35   2.485868e-35
6.264022e+01   2.643317e+00	2	  -1.992265e-35   1.231879e-35   2.342359e-35
6.273961e+01   2.552168e+00	2	  -2.080112e-35   7.271824e-36   2.203556e-35
6.283867e+01   2.461019e+00	2	  -2.041849e-35   2.645899e-36   2.058921e-35
6.293740e+01   2.369870e+00	2	  -1.899800e-35  -1.400646e-36   1.904956e-35
6.303581e+01   2.278722e+00	2	  -1.677246e-35  -4.761588e-36   1.743525e-35
6.313391e+01   2.187573e+00	2	  -1.397312e-35  -7.378115e-36   1.580142e-35
6.323169e+01   2.096424e+00	2	  -1.082072e-35  -9.233245e-36   1.422466e-35
6.332915e+01   2.005275e+00	2	  -7.518383e-36  -1.034574e-35   1.278907e-35
6.342631e+01   1.914126e+00	2	  -4.246419e-36  -1.076379e-35   1.157114e-35
6.352316e+01   1.822977e+00	2	  -1.158743e-36  -1.055876e-35   1.062215e-35
6.361971e+01   1.731828e+00	2	   1.619227e-36  -9.819095e-36   9.951710e-36
6.371596e+01   1.640680e+00	2	   3.991392e-36  -8.644629e-36   9.521598e-36
6.381191e+01   1.549531e+00	2	   5.890706e-36  -7.141357e-36   9.257397e-36
6.390756e+01   1.458382e+00	2	   7.278004e-36  -5.416734e-36   9.072505e-36
6.400292e+01   1.367233e+00	2	   8.140092e-36  -3.575566e-36   8.890769e-36
6.409800e+01   1.276084e+00	2	   8.487266e-36  -1.716521e-36   8.659106e-36
6.419278e+01   1.184935e+00	2	   8.350404e-36   7.075913e-38   8.350704e-36
6.428728e+01   1.093786e+00	2	   7.777768e-36   1.707937e-36   7.963085e-36
6.438150e+01   1.002637e+00	2	   6.831620e-36   3.129673e-36   7.514378e-36
6.447544e+01   9.114886e-01	2	   5.584768e-36   4.284771e-36   7.039098e-36
6.456910e+01   8.203398e-01	2	   4.117131e-36   5.136806e-36   6.583126e-36
6.466249e+01   7.291909e-01	2	   2.512389e-36   5.664279e-36   6.196463e-36
6.475561e+01   6.380420e-01	2	   8.547918e-37   5.860333e-36   5.922345e-36
6.484846e+01   5.468932e-01	2	  -7.738124e-37   5.732085e-36   5.784080e-36
6.494103e+01   4.557443e-01	2	  -2.296700e-36   5.299621e-36   5.775882e-36
6.503335e+01   3.645954e-01	2	  -3.644695e-36   4.594681e-36   5.864716e-36
6.512540e+01   2.734466e-01	2	  -4.758262e-36   3.659101e-36   6.002506e-36
6.521719e+01   1.822977e-01	2	  -5.589251e-36   2.543042e-36   6.140585e-36
6.530872e+01   9.114886e-02	2	  -6.102279e-36   1.303050e-36   6.239851e-36
6.540000e+01   0.000000e+00	2	  -6.275713e-36   0.000000e+00   6.275713e-36
6.549102e+01   9.114886e-02	2	  -6.102279e-36   1.303050e-36   6.239851e-36
6.558179e+01   1.822977e-01	2	  -5.589251e-36   2.543042e-36   6.140585e-36
6.567231e+01   2.734466e-01	2	  -4.758262e-36   3.659101e-36   6.002506e-36
6.576259e+01   3.645954e-01	2	  -3.644695e-36   4.594681e-36   5.864716e-36
6.585261e+01   4.557443e-01	2	  -2.296700e-36   5.299621e-36   5.775882e-36
6.594239e+01   5.468932e-01	2	  -7.738124e-37   5.732085e-36   5.784080e-36
6.603194e+01   6.380420e-01	2	   8.547918e-37   5.860333e-36   5.922345e-36
6.612124e+01   7.291909e-01	2	   2.512389e-36   5.664279e-36   6.196463e-36
6.621030e+01   8.203398e-01	2	   4.117131e-36   5.136806e-36   6.583126e-36
6.629913e+01   9.114886e-01	2	   5.584768e-36   4.284771e-36   7.039098e-36
6.638772e+01   1.002637e+00	2	   6.831620e-36   3.129673e-36   7.514378e-36
6.647608e+01   1.093786e+00	2	   7.777768e-36   1.707937e-36   7.963085e-36
6.656421e+01   1.184935e+00	2	   8.350404e-36   7.075913e-38   8.350704e-36
6.665211e+01   1.276084e+00	2	   8.487266e-36  -1.716521e-36   8.659106e-36
6.673979e+01   1.367233e+00	2	   8.140092e-36  -3.575566e-36   8.890769e-36
6.682723e+01   1.458382e+00	2	   7.278004e-36  -5.416734e-36   9.072505e-36
6.691446e+01   1.549531e+00	2	   5.890706e-36  -7.141357e-36   9.257397e-36
6.700146e+01   1.640680e+00	2	   3.991392e-36  -8.644629e-36   9.521598e-36
6.708825e+01   1.731828e+00	2	   1.619227e-36  -9.819095e-36   9.951710e-36
6.717481e+01   1.822977e+00	2	  -1.158743e-36  -1.055876e-35   1.062215e-35
6.726116e+01   1.914126e+00	2	  -4.246419e-36  -1.076379e-35   1.157114e-35
6.734729e+01   2.005275e+00	2	  -7.518383e-36  -1.034574e-35   1.278907e-35
6.743321e+01   2.096424e+00	2	  -1.082072e-35  -9.233245e-36   1.422466e-35
6.751892e+01   2.187573e+00	2	  -1.397312e-35  -7.378115e-36   1.580142e-35
6.760442e+01   2.278722e+00	2	  -1.677246e-35  -4.761588e-36   1.743525e-35
6.768971e+01   2.369870e+00	2	  -1.899800e-35  -1.400646e-36   1.904956e-35
6.777479e+01   2.461019e+00	2	  -2.041849e-35   2.645899e-36   2.058921e-35
6.785966e+01   2.552168e+00	2	  -2.080112e-35   7.271824e-36   2.203556e-35
6.794433e+01   2.643317e+00	2	  -1.992265e-35   1.231879e-35   2.342359e-35
6.802880e+01   2.734466e+00	2	  -1.758255e-35   1.757293e-35   2.485868e-35
6.811307e+01   2.825615e+00	2	  -1.361829e-35   2.276320e-35   2.652586e-35
6.819713e+01   2.916764e+00	2	  -7.922419e-36   2.756210e-35   2.867811e-35
6.828100e+01   3.007912e+00	2	  -4.614215e-37   3.158927e-35   3.159264e-35
6.836467e+01   3.099061e+00	2	   8.704369e-36   3.441874e-35   3.550234e-35
6.844814e+01   3.190210e+00	2	   1.940025e-35   3.559046e-35   4.053456e-35
6.853142e+01   3.281359e+00	2	   3.131699e-35   3.462678e-35   4.668798e-35
6.861451e+01   3.372508e+00	2	   4.399218e-35   3.105458e-35   5.384885e-35
6.869740e+01   3.463657e+00	2	   5.679456e-35   2.443370e-35   6.182740e-35
6.878011e+01   3.554806e+00	2	   6.891306e-35   1.439201e-35   7.039986e-35
6.886262e+01   3.645954e+00	2	   7.935282e-35   6.674494e-37   7.935563e-35
6.894495e+01   3.737103e+00	2	   8.694072e-35  -1.684307e-35   8.855720e-35
1.684043e+00   1.640680e+00	3	  -2.396992e+05   8.904364e+04   2.557039e+05
1.780291e+00   1.731828e+00	3	  -2.488538e+05   8.375339e+04   2.625697e+05
1.876838e+00   1.822977e+00	3	  -2.518114e+05   7.766514e+04   2.635163e+05
1.973690e+00   1.914126e+00	3	  -2.481210e+05   7.092509e+04   2.580589e+05
2.070847e+00   2.005275e+00	3	  -2.374650e+05   6.369354e+04   2.458587e+05
2.168313e+00   2.096424e+00	3	  -2.196810e+05   5.614168e+04   2.267413e+05
2.266092e+00   2.187573e+00	3	  -1.947836e+05   4.844762e+04   2.007182e+05
2.364186e+00   2.278722e+00	3	  -1.629848e+05   4.079197e+04   1.680120e+05
2.462598e+00   2.369870e+00	3	  -1.247137e+05   3.335280e+04   1.290966e+05
2.561331e+00   2.461019e+00	3	  -8.063332e+04   2.630000e+04   8.481405e+04
2.660389e+00   2.552168e+00	3	  -3.165432e+04   1.978931e+04   3.733112e+04
2.759775e+00   2.643317e+00	3	   2.105509e+04   1.395597e+04   2.526036e+04
2.859492e+00   2.734466e+00	3	   7.606502e+04   8.908128e+03   7.658487e+04
2.959543e+00   2.825615e+00	3	   1.316864e+05   4.720335e+03   1.317709e+05
3.059931e+00   2.916764e+00	3	   1.859814e+05   1.427216e+03   1.859869e+05
3.160661e+00   3.007912e+00	3	   2.367843e+05  -9.822774e+02   2.367863e+05
3.261736e+00   3.099061e+00	3	   2.817328e+05  -2.569739e+03   2.817445e+05
3.363159e+00   3.190210e+00	3	   3.183132e+05  -3.450858e+03   3.183319e+05
3.464933e+00   3.281359e+00	3	   3.439202e+05  -3.797187e+03   3.439412e+05
3.567064e+00   3.372508e+00	3	   3.559331e+05  -3.835574e+03   3.559537e+05
3.669553e+00   3.463657e+00	3	   3.518096e+05  -3.844677e+03   3.518306e+05
3.772406e+00   3.554806e+00	3	   3.292000e+05  -4.147918e+03   3.292261e+05
3.875625e+00   3.645954e+00	3	   2.860793e+05  -5.102214e+03   2.861248e+05
3.979216e+00   3.737103e+00	3	   2.209015e+05  -7.081827e+03   2.210150e+05
6.142078e+01   3.737103e+00	3	   2.553772e+02  -4.711361e+02   5.358981e+02
6.152437e+01   3.645954e+00	3	   3.015249e+02  -3.885224e+02   4.917997e+02
6.162759e+01   3.554806e+00	3	   3.294794e+02  -3.060235e+02   4.496744e+02
6.173045e+01   3.463657e+00	3	   3.410066e+02  -2.264719e+02   4.093593e+02
6.183294e+01   3.372508e+00	3	   3.381502e+02  -1.521242e+02   3.707929e+02
6.193507e+01   3.281359e+00	3	   3.231157e+02  -8.469744e+01   3.340320e+02
6.203684e+01   3.190210e+00	3	   2.981720e+02  -2.541429e+01   2.992531e+02
6.213826e+01   3.099061e+00	3	   2.655711e+02   2.494578e+01   2.667401e+02
6.223934e+01   3.007912e+00	3	   2.274833e+02   6.599298e+01   2.368623e+02
6.234007e+01   2.916764e+00	3	   1.859467e+02   9.767285e+01   2.100384e+02
6.244046e+01   2.825615e+00	3	   1.428298e+02   1.202129e+02   1.866855e+02
6.254051e+01   2.734466e+00	3	   9.980582e+01   1.340713e+02   1.671416e+02
6.264022e+01   2.643317e+00	3	   5.833591e+01   1.398896e+02   1.515658e+02
6.273961e+01   2.552168e+00	3	   1.966125e+01   1.384478e+02   1.398369e+02
6.283867e+01   2.461019e+00	3	  -1.519831e+01   1.306249e+02   1.315061e+02
6.293740e+01   2.369870e+00	3	  -4.543996e+01   1.173633e+02   1.258528e+02
6.303581e+01   2.278722e+00	3	  -7.046925e+01   9.963719e+01   1.220389e+02
6.313391e+01   2.187573e+00	3	  -8.988809e+01   7.842599e+01   1.192917e+02
6.323169e+01   2.096424e+00	3	  -1.034802e+02   5.469108e+01   1.170438e+02
6.332915e+01   2.005275e+00	3	  -1.111946e+02   2.935688e+01   1.150047e+02
6.342631e+01   1.914126e+00	3	  -1.131288e+02   3.295285e+00   1.131768e+02
6.352316e+01   1.822977e+00	3	  -1.095103e+02  -2.268667e+01   1.118356e+02
6.361971e+01   1.731828e+00	3	  -1.006788e+02  -4.785619e+01   1.114740e+02
6.371596e+01   1.640680e+00	3	  -8.706864e+01  -7.156155e+01   1.127032e+02
6.381191e+01   1.549531e+00	3	  -6.919110e+01  -9.323659e+01   1.161054e+02
6.390756e+01   1.458382e+00	3	  -4.761828e+01  -1.124033e+02   1.220737e+02
6.400292e+01   1.367233e+00	3	  -2.296722e+01  -1.286725e+02   1.307061e+02
6.409800e+01   1.276084e+00	3	   4.114689e+00  -1.417433e+02   1.418031e+02
6.419278e+01   1.184935e+00	3	   3.296337e+01  -1.514015e+02   1.549483e+02
6.428728e+01   1.093786e+00	3	   6.291056e+01  -1.575159e+02   1.696142e+02
6.438150e+01   1.002637e+00	3	   9.329530e+01  -1.600353e+02   1.852439e+02
6.447544e+01   9.114886e-01	3	   1.234743e+02  -1.589836e+02   2.013000e+02
6.456910e+01   8.203398e-01	3	   1.528312e+02  -1.544551e+02   2.172873e+02
6.466249e+01   7.291909e-01	3	   1.807851e+02  -1.466086e+02   2.327602e+02
6.475561e+01   6.380420e-01	3	   2.067975e+02  -1.356619e+02   2.473244e+02
6.484846e+01   5.468932e-01	3	   2.303791e+02  -1.218855e+02   2.606350e+02
6.494103e+01   4.557443e-01	3	   2.510952e+02  -1.055967e+02   2.723958e+02
6.503335e+01   3.645954e-01	3	   2.685701e+02  -8.715261e+01   2.823570e+02
6.512540e+01   2.734466e-01	3	   2.824916e+02  -6.694387e+01   2.903153e+02
6.521719e+01   1.822977e-01	3	   2.926133e+02  -4.538809e+01   2.961125e+02
6.530872e+01   9.114886e-02	3	   2.987578e+02  -2.292305e+01   2.996359e+02
6.540000e+01   0.000000e+00	3	   3.008179e+02   0.000000e+00   3.008179e+02
6.549102e+01   9.114886e-02	3	  -2.905096e+03   3.987088e+01   2.905370e+03
6.558179e+01   1.822977e-01	3	  -2.835352e+03   7.874014e+01   2.836445e+03
6.567231e+01   2.734466e-01	3	  -2.720444e+03   1.156255e+02   2.722900e+03
6.576259e+01   3.645954e-01	3	  -2.562354e+03   1.495837e+02   2.566716e+03
6.585261e+01   4.557443e-01	3	  -2.363832e+03   1.797291e+02   2.370655e+03
6.594239e+01   5.468932e-01	3	  -2.128365e+03   2.052536e+02   2.138239e+03
6.603194e+01   6.380420e-01	3	  -1.860143e+03   2.254454e+02   1.873755e+03
6.612124e+01   7.291909e-01	3	  -1.564012e+03   2.397072e+02   1.582275e+03
6.621030e+01   8.203398e-01	3	  -1.245423e+03   2.475752e+02   1.269792e+03
6.629913e+01   9.114886e-01	3	  -9.103649e+02   2.487365e+02   9.437341e+02
6.638772e+01   1.002637e+00	3	  -5.652952e+02   2.430462e+02   6.153293e+02
6.647608e+01   1.093786e+00	3	  -2.170532e+02   2.305434e+02   3.166423e+02
6.656421e+01   1.184935e+00	3	   1.272332e+02   2.114662e+02   2.467919e+02
6.665211e+01   1.276084e+00	3	   4.602536e+02   1.862649e+02   4.965158e+02
6.673979e+01   1.367233e+00	3	   7.746319e+02   1.556134e+02   7.901076e+02
6.682723e+01   1.458382e+00	3	   1.063056e+03   1.204178e+02   1.069854e+03
6.691446e+01   1.549531e+00	3	   1.318416e+03   8.182247e+01   1.320953e+03
6.700146e+01   1.640680e+00	3	   1.533960e+03   4.121207e+01   1.534514e+03
6.708825e+01   1.731828e+00	3	   1.703454e+03   2.093565e-01   1.703454e+03
6.717481e+01   1.822977e+00	3	   1.821352e+03  -3.933226e+01   1.821777e+03
6.726116e+01   1.914126e+00	3	   1.882985e+03  -7.534223e+01   1.884491e+03
6.734729e+01   2.005275e+00	3	   1.884739e+03  -1.055535e+02   1.887692e+03
6.743321e+01   2.096424e+00	3	   1.824255e+03  -1.275314e+02   1.828708e+03
6.751892e+01   2.187573e+00	3	   1.700618e+03  -1.387116e+02   1.706265e+03
6.760442e+01   2.278722e+00	3	   1.514545e+03  -1.364488e+02   1.520679e+03
6.768971e+01   2.369870e+00	3	   1.268569e+03  -1.180765e+02   1.274052e+03
6.777479e+01   2.461019e+00	3	   9.672043e+02  -8.098064e+01   9.705885e+02
6.785966e+01   2.552168e+00	3	   6.170911e+02  -2.268546e+01   6.175079e+02
6.794433e+01   2.643317e+00	3	   2.271089e+02   5.904460e+01   2.346587e+02
6.802880e+01   2.734466e+00	3	  -1.915489e+02   1.660885e+02   2.535279e+02
6.811307e+01   2.825615e+00	3	  -6.253530e+02   2.998361e+02   6.935186e+02
6.819713e+01   2.916764e+00	3	  -1.058480e+03   4.610410e+02   1.154529e+03
6.828100e+01   3.007912e+00	3	  -1.472930e+03   6.496578e+02   1.609838e+03
6.836467e+01   3.099061e+00	3	  -1.848744e+03   8.646670e+02   2.040957e+03
6.844814e+01   3.190210e+00	3	  -2.164318e+03   1.103890e+03   2.429577e+03
6.853142e+01   3.281359e+00	3	  -2.396851e+03   1.363795e+03   2.757686e+03
6.861451e+01   3.372508e+00	3	  -2.522931e+03   1.639306e+03   3.008738e+03
6.869740e+01   3.463657e+00	3	  -2.519275e+03   1.923614e+03   3.169707e+03
6.878011e+01   3.554806e+00	3	  -2.363644e+03   2.208003e+03   3.234516e+03
6.886262e+01   3.645954e+00	3	  -2.035932e+03   2.481704e+03   3.209965e+03
6.894495e+01   3.737103e+00	3	  -1.519450e+03   2.731786e+03   3.125921e+03
