Response amplitude operators ----- File created by OW3D-Seakeeping ----- Thu Jun  1 15:08:14 2023
	Number of frequencies:24
	Froude number:1.514456e-02
	Beta:1.800000e+02
1.601464e+00   1.640680e+00	1	  -7.769826e-01   3.238845e-01   8.417856e-01
1.688248e+00   1.731828e+00	1	  -6.222808e-01   2.820093e-01   6.832003e-01
1.774813e+00   1.822977e+00	1	  -4.702023e-01   2.285636e-01   5.228112e-01
1.861161e+00   1.914126e+00	1	  -3.248702e-01   1.656241e-01   3.646533e-01
1.947294e+00   2.005275e+00	1	  -1.901919e-01   9.572947e-02   2.129251e-01
2.033213e+00   2.096424e+00	1	  -6.973748e-02   2.182047e-02   7.307153e-02
2.118921e+00   2.187573e+00	1	   3.338741e-02  -5.284213e-02   6.250607e-02
2.204418e+00   2.278722e+00	1	   1.166736e-01  -1.247851e-01   1.708334e-01
2.289706e+00   2.369870e+00	1	   1.783394e-01  -1.904592e-01   2.609208e-01
2.374787e+00   2.461019e+00	1	   2.174515e-01  -2.464062e-01   3.286353e-01
2.459661e+00   2.552168e+00	1	   2.340233e-01  -2.894527e-01   3.722227e-01
2.544332e+00   2.643317e+00	1	   2.290781e-01  -3.169248e-01   3.910475e-01
2.628799e+00   2.734466e+00	1	   2.046619e-01  -3.268697e-01   3.856557e-01
2.713065e+00   2.825615e+00	1	   1.637930e-01  -3.182646e-01   3.579392e-01
2.797131e+00   2.916764e+00	1	   1.103404e-01  -2.911881e-01   3.113929e-01
2.880999e+00   3.007912e+00	1	   4.882578e-02  -2.469263e-01   2.517073e-01
2.964669e+00   3.099061e+00	1	  -1.584500e-02  -1.879839e-01   1.886505e-01
3.048143e+00   3.190210e+00	1	  -7.870635e-02  -1.179776e-01   1.418217e-01
3.131423e+00   3.281359e+00	1	  -1.350893e-01  -4.139803e-02   1.412902e-01
3.214510e+00   3.372508e+00	1	  -1.809747e-01   3.675567e-02   1.846695e-01
3.297405e+00   3.463657e+00	1	  -2.133007e-01   1.114431e-01   2.406589e-01
3.380109e+00   3.554806e+00	1	  -2.301823e-01   1.781019e-01   2.910398e-01
3.462625e+00   3.645954e+00	1	  -2.310030e-01   2.331463e-01   3.282066e-01
3.544952e+00   3.737103e+00	1	  -2.163536e-01   2.743553e-01   3.493991e-01
1.601464e+00   1.640680e+00	2	  -1.484885e-41   3.576961e-42   1.527361e-41
1.688248e+00   1.731828e+00	2	  -1.214684e-41   6.124229e-42   1.360338e-41
1.774813e+00   1.822977e+00	2	  -9.256486e-42   8.198031e-42   1.236488e-41
1.861161e+00   1.914126e+00	2	  -6.314055e-42   9.681718e-42   1.155867e-41
1.947294e+00   2.005275e+00	2	  -3.420020e-42   1.049186e-41   1.103521e-41
2.033213e+00   2.096424e+00	2	  -6.453732e-43   1.058857e-41   1.060822e-41
2.118921e+00   2.187573e+00	2	   1.956871e-42   9.979962e-42   1.017000e-41
2.204418e+00   2.278722e+00	2	   4.338264e-42   8.719699e-42   9.739286e-42
2.289706e+00   2.369870e+00	2	   6.443110e-42   6.897649e-42   9.438815e-42
2.374787e+00   2.461019e+00	2	   8.201236e-42   4.625925e-42   9.415915e-42
2.459661e+00   2.552168e+00	2	   9.527045e-42   2.023499e-42   9.739565e-42
2.544332e+00   2.643317e+00	2	   1.032492e-41  -7.967025e-43   1.035561e-41
2.628799e+00   2.734466e+00	2	   1.049939e-41  -3.734745e-42   1.114385e-41
2.713065e+00   2.825615e+00	2	   9.967146e-42  -6.702549e-42   1.201117e-41
2.797131e+00   2.916764e+00	2	   8.667806e-42  -9.614596e-42   1.294493e-41
2.880999e+00   3.007912e+00	2	   6.570680e-42  -1.237274e-41   1.400923e-41
2.964669e+00   3.099061e+00	2	   3.676778e-42  -1.484944e-41   1.529786e-41
3.048143e+00   3.190210e+00	2	   1.740805e-44  -1.687463e-41   1.687464e-41
3.131423e+00   3.281359e+00	2	  -4.346975e-42  -1.823134e-41   1.874241e-41
3.214510e+00   3.372508e+00	2	  -9.322810e-42  -1.866275e-41   2.086176e-41
3.297405e+00   3.463657e+00	2	  -1.477022e-41  -1.789105e-41   2.320020e-41
3.380109e+00   3.554806e+00	2	  -2.047934e-41  -1.564469e-41   2.577129e-41
3.462625e+00   3.645954e+00	2	  -2.613985e-41  -1.168952e-41   2.863454e-41
3.544952e+00   3.737103e+00	2	  -3.131222e-41  -5.859332e-42   3.185572e-41
1.601464e+00   1.640680e+00	3	   3.231938e-02   5.395352e-02   6.289296e-02
1.688248e+00   1.731828e+00	3	   1.907465e-02   8.233484e-02   8.451549e-02
1.774813e+00   1.822977e+00	3	   1.222891e-02   1.032422e-01   1.039640e-01
1.861161e+00   1.914126e+00	3	   1.016004e-02   1.164621e-01   1.169045e-01
1.947294e+00   2.005275e+00	3	   1.129972e-02   1.220937e-01   1.226155e-01
2.033213e+00   2.096424e+00	3	   1.418663e-02   1.205014e-01   1.213336e-01
2.118921e+00   2.187573e+00	3	   1.750393e-02   1.122689e-01   1.136252e-01
2.204418e+00   2.278722e+00	3	   2.010515e-02   9.816107e-02   1.001989e-01
2.289706e+00   2.369870e+00	3	   2.103302e-02   7.909191e-02   8.184081e-02
2.374787e+00   2.461019e+00	3	   1.953521e-02   5.609846e-02   5.940254e-02
2.459661e+00   2.552168e+00	3	   1.507942e-02   3.031783e-02   3.386089e-02
2.544332e+00   2.643317e+00	3	   7.368951e-03   2.963940e-03   7.942693e-03
2.628799e+00   2.734466e+00	3	  -3.641744e-03  -2.469858e-02   2.496562e-02
2.713065e+00   2.825615e+00	3	  -1.773301e-02  -5.138552e-02   5.435928e-02
2.797131e+00   2.916764e+00	3	  -3.440979e-02  -7.583075e-02   8.327266e-02
2.880999e+00   3.007912e+00	3	  -5.289803e-02  -9.683063e-02   1.103375e-01
2.964669e+00   3.099061e+00	3	  -7.215061e-02  -1.132950e-01   1.343185e-01
3.048143e+00   3.190210e+00	3	  -9.086550e-02  -1.243034e-01   1.539736e-01
3.131423e+00   3.281359e+00	3	  -1.075188e-01  -1.291647e-01   1.680589e-01
3.214510e+00   3.372508e+00	3	  -1.204144e-01  -1.274764e-01   1.753564e-01
3.297405e+00   3.463657e+00	3	  -1.277521e-01  -1.191814e-01   1.747135e-01
3.380109e+00   3.554806e+00	3	  -1.277136e-01  -1.046147e-01   1.650909e-01
3.462625e+00   3.645954e+00	3	  -1.185668e-01  -8.453620e-02   1.456175e-01
3.544952e+00   3.737103e+00	3	  -9.878475e-02  -6.014247e-02   1.156527e-01
