Second order wave drift forces ----- File created by OW3D-Seakeeping ----- Mon May  6 15:03:43 2024
	Number of frequencies:24
	Froude number:1.514456e-02
	Beta:1.800000e+02
1.601464e+00   1.640680e+00	1  -1.222724e+05  -1.299460e+05  -1.235025e+05
1.688248e+00   1.731828e+00	1  -1.055331e+05  -1.085890e+05  -9.057990e+04
1.774813e+00   1.822977e+00	1  -8.481012e+04  -8.604934e+04  -6.106544e+04
1.861161e+00   1.914126e+00	1  -6.272697e+04  -6.510565e+04  -3.338057e+04
1.947294e+00   2.005275e+00	1  -4.213589e+04  -4.812331e+04  -1.256110e+04
2.033213e+00   2.096424e+00	1  -2.551612e+04  -3.661978e+04  -1.453409e+04
2.118921e+00   2.187573e+00	1  -1.440265e+04  -3.097466e+04  -5.131571e+04
2.204418e+00   2.278722e+00	1  -8.991081e+03  -3.034783e+04  -1.082544e+05
2.289706e+00   2.369870e+00	1  -8.048915e+03  -3.282848e+04  -1.450058e+05
2.374787e+00   2.461019e+00	1  -9.206185e+03  -3.579219e+04  -1.335662e+05
2.459661e+00   2.552168e+00	1  -9.603320e+03  -3.640657e+04  -9.792290e+04
2.544332e+00   2.643317e+00	1  -6.757218e+03  -3.220685e+04  -9.860154e+04
2.628799e+00   2.734466e+00	1   5.983202e+02  -2.166184e+04  -1.534325e+05
2.713065e+00   2.825615e+00	1   1.199077e+04  -4.654856e+03  -1.878910e+05
2.797131e+00   2.916764e+00	1   2.525125e+04   1.720558e+04  -1.424268e+05
2.880999e+00   3.007912e+00	1   3.720634e+04   4.056640e+04  -1.288213e+05
2.964669e+00   3.099061e+00	1   4.485956e+04   6.076558e+04  -2.885121e+05
3.048143e+00   3.190210e+00	1   4.665414e+04   7.287643e+04  -5.018949e+05
3.131423e+00   3.281359e+00	1   4.327381e+04   7.336529e+04  -5.977731e+05
3.214510e+00   3.372508e+00	1   3.752411e+04   6.202671e+04  -6.904346e+05
3.297405e+00   3.463657e+00	1   3.317378e+04   4.339489e+04  -8.125750e+05
3.380109e+00   3.554806e+00	1   3.312609e+04   2.648962e+04  -7.648169e+05
3.462625e+00   3.645954e+00	1   3.771227e+04   2.192712e+04  -8.813239e+05
3.544952e+00   3.737103e+00	1   4.399385e+04   3.642732e+04  -1.867832e+06
1.601464e+00   1.640680e+00	2   0.000000e+00   0.000000e+00   0.000000e+00
1.688248e+00   1.731828e+00	2   0.000000e+00   0.000000e+00   0.000000e+00
1.774813e+00   1.822977e+00	2   0.000000e+00   0.000000e+00   0.000000e+00
1.861161e+00   1.914126e+00	2   0.000000e+00   0.000000e+00   0.000000e+00
1.947294e+00   2.005275e+00	2   0.000000e+00   0.000000e+00   0.000000e+00
2.033213e+00   2.096424e+00	2   0.000000e+00   0.000000e+00   0.000000e+00
2.118921e+00   2.187573e+00	2   0.000000e+00   0.000000e+00   0.000000e+00
2.204418e+00   2.278722e+00	2   0.000000e+00   0.000000e+00   0.000000e+00
2.289706e+00   2.369870e+00	2   0.000000e+00   0.000000e+00   0.000000e+00
2.374787e+00   2.461019e+00	2   0.000000e+00   0.000000e+00   0.000000e+00
2.459661e+00   2.552168e+00	2   0.000000e+00   0.000000e+00   0.000000e+00
2.544332e+00   2.643317e+00	2   0.000000e+00   0.000000e+00   0.000000e+00
2.628799e+00   2.734466e+00	2   0.000000e+00   0.000000e+00   0.000000e+00
2.713065e+00   2.825615e+00	2   0.000000e+00   0.000000e+00   0.000000e+00
2.797131e+00   2.916764e+00	2   0.000000e+00   0.000000e+00   0.000000e+00
2.880999e+00   3.007912e+00	2   0.000000e+00   0.000000e+00   0.000000e+00
2.964669e+00   3.099061e+00	2   0.000000e+00   0.000000e+00   0.000000e+00
3.048143e+00   3.190210e+00	2   0.000000e+00   0.000000e+00   0.000000e+00
3.131423e+00   3.281359e+00	2   0.000000e+00   0.000000e+00   0.000000e+00
3.214510e+00   3.372508e+00	2   0.000000e+00   0.000000e+00   0.000000e+00
3.297405e+00   3.463657e+00	2   0.000000e+00   0.000000e+00   0.000000e+00
3.380109e+00   3.554806e+00	2   0.000000e+00   0.000000e+00   0.000000e+00
3.462625e+00   3.645954e+00	2   0.000000e+00   0.000000e+00   0.000000e+00
3.544952e+00   3.737103e+00	2   0.000000e+00   0.000000e+00   0.000000e+00
1.601464e+00   1.640680e+00	3   0.000000e+00   0.000000e+00   0.000000e+00
1.688248e+00   1.731828e+00	3   0.000000e+00   0.000000e+00   0.000000e+00
1.774813e+00   1.822977e+00	3   0.000000e+00   0.000000e+00   0.000000e+00
1.861161e+00   1.914126e+00	3   0.000000e+00   0.000000e+00   0.000000e+00
1.947294e+00   2.005275e+00	3   0.000000e+00   0.000000e+00   0.000000e+00
2.033213e+00   2.096424e+00	3   0.000000e+00   0.000000e+00   0.000000e+00
2.118921e+00   2.187573e+00	3   0.000000e+00   0.000000e+00   0.000000e+00
2.204418e+00   2.278722e+00	3   0.000000e+00   0.000000e+00   0.000000e+00
2.289706e+00   2.369870e+00	3   0.000000e+00   0.000000e+00   0.000000e+00
2.374787e+00   2.461019e+00	3   0.000000e+00   0.000000e+00   0.000000e+00
2.459661e+00   2.552168e+00	3   0.000000e+00   0.000000e+00   0.000000e+00
2.544332e+00   2.643317e+00	3   0.000000e+00   0.000000e+00   0.000000e+00
2.628799e+00   2.734466e+00	3   0.000000e+00   0.000000e+00   0.000000e+00
2.713065e+00   2.825615e+00	3   0.000000e+00   0.000000e+00   0.000000e+00
2.797131e+00   2.916764e+00	3   0.000000e+00   0.000000e+00   0.000000e+00
2.880999e+00   3.007912e+00	3   0.000000e+00   0.000000e+00   0.000000e+00
2.964669e+00   3.099061e+00	3   0.000000e+00   0.000000e+00   0.000000e+00
3.048143e+00   3.190210e+00	3   0.000000e+00   0.000000e+00   0.000000e+00
3.131423e+00   3.281359e+00	3   0.000000e+00   0.000000e+00   0.000000e+00
3.214510e+00   3.372508e+00	3   0.000000e+00   0.000000e+00   0.000000e+00
3.297405e+00   3.463657e+00	3   0.000000e+00   0.000000e+00   0.000000e+00
3.380109e+00   3.554806e+00	3   0.000000e+00   0.000000e+00   0.000000e+00
3.462625e+00   3.645954e+00	3   0.000000e+00   0.000000e+00   0.000000e+00
3.544952e+00   3.737103e+00	3   0.000000e+00   0.000000e+00   0.000000e+00
1.601464e+00   1.640680e+00	4   0.000000e+00   0.000000e+00   0.000000e+00
1.688248e+00   1.731828e+00	4   0.000000e+00   0.000000e+00   0.000000e+00
1.774813e+00   1.822977e+00	4   0.000000e+00   0.000000e+00   0.000000e+00
1.861161e+00   1.914126e+00	4   0.000000e+00   0.000000e+00   0.000000e+00
1.947294e+00   2.005275e+00	4   0.000000e+00   0.000000e+00   0.000000e+00
2.033213e+00   2.096424e+00	4   0.000000e+00   0.000000e+00   0.000000e+00
2.118921e+00   2.187573e+00	4   0.000000e+00   0.000000e+00   0.000000e+00
2.204418e+00   2.278722e+00	4   0.000000e+00   0.000000e+00   0.000000e+00
2.289706e+00   2.369870e+00	4   0.000000e+00   0.000000e+00   0.000000e+00
2.374787e+00   2.461019e+00	4   0.000000e+00   0.000000e+00   0.000000e+00
2.459661e+00   2.552168e+00	4   0.000000e+00   0.000000e+00   0.000000e+00
2.544332e+00   2.643317e+00	4   0.000000e+00   0.000000e+00   0.000000e+00
2.628799e+00   2.734466e+00	4   0.000000e+00   0.000000e+00   0.000000e+00
2.713065e+00   2.825615e+00	4   0.000000e+00   0.000000e+00   0.000000e+00
2.797131e+00   2.916764e+00	4   0.000000e+00   0.000000e+00   0.000000e+00
2.880999e+00   3.007912e+00	4   0.000000e+00   0.000000e+00   0.000000e+00
2.964669e+00   3.099061e+00	4   0.000000e+00   0.000000e+00   0.000000e+00
3.048143e+00   3.190210e+00	4   0.000000e+00   0.000000e+00   0.000000e+00
3.131423e+00   3.281359e+00	4   0.000000e+00   0.000000e+00   0.000000e+00
3.214510e+00   3.372508e+00	4   0.000000e+00   0.000000e+00   0.000000e+00
3.297405e+00   3.463657e+00	4   0.000000e+00   0.000000e+00   0.000000e+00
3.380109e+00   3.554806e+00	4   0.000000e+00   0.000000e+00   0.000000e+00
3.462625e+00   3.645954e+00	4   0.000000e+00   0.000000e+00   0.000000e+00
3.544952e+00   3.737103e+00	4   0.000000e+00   0.000000e+00   0.000000e+00
1.601464e+00   1.640680e+00	5   0.000000e+00   0.000000e+00   0.000000e+00
1.688248e+00   1.731828e+00	5   0.000000e+00   0.000000e+00   0.000000e+00
1.774813e+00   1.822977e+00	5   0.000000e+00   0.000000e+00   0.000000e+00
1.861161e+00   1.914126e+00	5   0.000000e+00   0.000000e+00   0.000000e+00
1.947294e+00   2.005275e+00	5   0.000000e+00   0.000000e+00   0.000000e+00
2.033213e+00   2.096424e+00	5   0.000000e+00   0.000000e+00   0.000000e+00
2.118921e+00   2.187573e+00	5   0.000000e+00   0.000000e+00   0.000000e+00
2.204418e+00   2.278722e+00	5   0.000000e+00   0.000000e+00   0.000000e+00
2.289706e+00   2.369870e+00	5   0.000000e+00   0.000000e+00   0.000000e+00
2.374787e+00   2.461019e+00	5   0.000000e+00   0.000000e+00   0.000000e+00
2.459661e+00   2.552168e+00	5   0.000000e+00   0.000000e+00   0.000000e+00
2.544332e+00   2.643317e+00	5   0.000000e+00   0.000000e+00   0.000000e+00
2.628799e+00   2.734466e+00	5   0.000000e+00   0.000000e+00   0.000000e+00
2.713065e+00   2.825615e+00	5   0.000000e+00   0.000000e+00   0.000000e+00
2.797131e+00   2.916764e+00	5   0.000000e+00   0.000000e+00   0.000000e+00
2.880999e+00   3.007912e+00	5   0.000000e+00   0.000000e+00   0.000000e+00
2.964669e+00   3.099061e+00	5   0.000000e+00   0.000000e+00   0.000000e+00
3.048143e+00   3.190210e+00	5   0.000000e+00   0.000000e+00   0.000000e+00
3.131423e+00   3.281359e+00	5   0.000000e+00   0.000000e+00   0.000000e+00
3.214510e+00   3.372508e+00	5   0.000000e+00   0.000000e+00   0.000000e+00
3.297405e+00   3.463657e+00	5   0.000000e+00   0.000000e+00   0.000000e+00
3.380109e+00   3.554806e+00	5   0.000000e+00   0.000000e+00   0.000000e+00
3.462625e+00   3.645954e+00	5   0.000000e+00   0.000000e+00   0.000000e+00
3.544952e+00   3.737103e+00	5   0.000000e+00   0.000000e+00   0.000000e+00
1.601464e+00   1.640680e+00	6   0.000000e+00   0.000000e+00   0.000000e+00
1.688248e+00   1.731828e+00	6   0.000000e+00   0.000000e+00   0.000000e+00
1.774813e+00   1.822977e+00	6   0.000000e+00   0.000000e+00   0.000000e+00
1.861161e+00   1.914126e+00	6   0.000000e+00   0.000000e+00   0.000000e+00
1.947294e+00   2.005275e+00	6   0.000000e+00   0.000000e+00   0.000000e+00
2.033213e+00   2.096424e+00	6   0.000000e+00   0.000000e+00   0.000000e+00
2.118921e+00   2.187573e+00	6   0.000000e+00   0.000000e+00   0.000000e+00
2.204418e+00   2.278722e+00	6   0.000000e+00   0.000000e+00   0.000000e+00
2.289706e+00   2.369870e+00	6   0.000000e+00   0.000000e+00   0.000000e+00
2.374787e+00   2.461019e+00	6   0.000000e+00   0.000000e+00   0.000000e+00
2.459661e+00   2.552168e+00	6   0.000000e+00   0.000000e+00   0.000000e+00
2.544332e+00   2.643317e+00	6   0.000000e+00   0.000000e+00   0.000000e+00
2.628799e+00   2.734466e+00	6   0.000000e+00   0.000000e+00   0.000000e+00
2.713065e+00   2.825615e+00	6   0.000000e+00   0.000000e+00   0.000000e+00
2.797131e+00   2.916764e+00	6   0.000000e+00   0.000000e+00   0.000000e+00
2.880999e+00   3.007912e+00	6   0.000000e+00   0.000000e+00   0.000000e+00
2.964669e+00   3.099061e+00	6   0.000000e+00   0.000000e+00   0.000000e+00
3.048143e+00   3.190210e+00	6   0.000000e+00   0.000000e+00   0.000000e+00
3.131423e+00   3.281359e+00	6   0.000000e+00   0.000000e+00   0.000000e+00
3.214510e+00   3.372508e+00	6   0.000000e+00   0.000000e+00   0.000000e+00
3.297405e+00   3.463657e+00	6   0.000000e+00   0.000000e+00   0.000000e+00
3.380109e+00   3.554806e+00	6   0.000000e+00   0.000000e+00   0.000000e+00
3.462625e+00   3.645954e+00	6   0.000000e+00   0.000000e+00   0.000000e+00
3.544952e+00   3.737103e+00	6   0.000000e+00   0.000000e+00   0.000000e+00
