                                                                        S      1
1H,,1H;,,                                                               G      1
45HC:\Users\maaf\Desktop\ushared\patch_s0_yz.igs,                       G      2
26HRhinoceros ( Apr 17 2023 ),31HTrout Lake IGES 012 Apr 17 2023,       G      3
32,38,6,308,15,                                                         G      4
,                                                                       G      5
1.0D0,6,1HM,1,0.000254D0,13H230620.075440,                              G      6
0.001D0,                                                                G      7
1.2225D0,                                                               G      8
4Hmaaf,                                                                 G      9
3Hdtu,                                                                  G     10
10,0,13H230620.075440;                                                  G     11
     314       1       0       0       0       0       0       000000200D      1
     314       0       1       1       0       0       0   COLOR       0D      2
     406       2       0       0       1       0       0       000000300D      3
     406       0      -1       1       3       0       0LEVELDEF       0D      4
     128       3       0       0       1       0       0       000010000D      5
     128       0      -1       6       8       0       0 TrimSrf       0D      6
     126       9       0       0       1       0       0       000010500D      7
     126       0      -1       4       1       0       0 TrimBnd       1D      8
     126      13       0       0       1       0       0       000010500D      9
     126       0      -1       3       1       0       0 TrimBnd       2D     10
     126      16       0       0       1       0       0       000010500D     11
     126       0      -1       3       1       0       0 TrimBnd       3D     12
     126      19       0       0       1       0       0       000010500D     13
     126       0      -1       4       1       0       0 TrimBnd       4D     14
     102      23       0       0       1       0       0       000010500D     15
     102       0      -1       1       0       0       02D CURVE       0D     16
     126      24       0       0       1       0       0       000010000D     17
     126       0      -1       5       1       0       0 TrimBnd       1D     18
     126      29       0       0       1       0       0       000010000D     19
     126       0      -1       4       1       0       0 TrimBnd       2D     20
     126      33       0       0       1       0       0       000010000D     21
     126       0      -1       3       1       0       0 TrimBnd       3D     22
     126      36       0       0       1       0       0       000010000D     23
     126       0      -1       4       1       0       0 TrimBnd       4D     24
     102      40       0       0       1       0       0       000010000D     25
     102       0      -1       1       0       0       03D CURVE       0D     26
     142      41       0       0       1       0       0       000010000D     27
     142       0      -1       1       0       0       0 TrimBnd       1D     28
     144      42       0       0       1       0       0       000000000D     29
     144       0      -1       1       0       0       0 TrimSrf       0D     30
314,0.0,0.0,0.0,20HRGB(   0,   0,   0 );                         0000001P      1
406,2,1,7HDefault;                                               0000003P      2
128,1,1,1,1,0,0,1,0,0,0.0D0,0.0D0,0.25D0,0.25D0,                 0000005P      3
5.489999999999999D0,5.489999999999999D0,6.09D0,6.09D0,1.0D0,     0000005P      4
1.0D0,1.0D0,1.0D0,1.2225D0,-0.12D0,-0.3000000000000004D0,        0000005P      5
1.2225D0,0.13D0,-0.3000000000000004D0,1.2225D0,-0.12D0,          0000005P      6
0.2999999999999995D0,1.2225D0,0.13D0,0.2999999999999995D0,0.0D0, 0000005P      7
0.25D0,5.489999999999999D0,6.09D0;                               0000005P      8
126,1,1,1,0,1,0,1.081235004466715D0,1.081235004466715D0,         0000007P      9
1.201235004466715D0,1.201235004466715D0,1.0D0,1.0D0,0.0D0,       0000007P     10
5.789999999999999D0,0.0D0,0.12D0,5.789999999999999D0,0.0D0,      0000007P     11
1.081235004466715D0,1.201235004466715D0,0.0D0,0.0D0,1.0D0;       0000007P     12
126,1,1,1,0,1,0,5.789999999999999D0,5.789999999999999D0,6.09D0,  0000009P     13
6.09D0,1.0D0,1.0D0,0.12D0,5.789999999999999D0,0.0D0,0.12D0,      0000009P     14
6.09D0,0.0D0,5.789999999999999D0,6.09D0,0.0D0,0.0D0,1.0D0;       0000009P     15
126,1,1,1,0,1,0,-0.12D0,-0.12D0,-0.0D0,-0.0D0,1.0D0,1.0D0,       0000011P     16
0.12D0,6.09D0,0.0D0,0.0D0,6.09D0,0.0D0,-0.12D0,-0.0D0,0.0D0,     0000011P     17
0.0D0,1.0D0;                                                     0000011P     18
126,1,1,1,0,1,0,-6.09D0,-6.09D0,-5.789999999999999D0,            0000013P     19
-5.789999999999999D0,1.0D0,1.0D0,0.0D0,6.09D0,0.0D0,0.0D0,       0000013P     20
5.789999999999999D0,0.0D0,-6.09D0,-5.789999999999999D0,0.0D0,    0000013P     21
0.0D0,1.0D0;                                                     0000013P     22
102,4,7,9,11,13;                                                 0000015P     23
126,1,1,1,0,1,0,1.081235004466715D0,1.081235004466715D0,         0000017P     24
1.201235004466715D0,1.201235004466715D0,1.0D0,1.0D0,1.2225D0,    0000017P     25
-0.12D0,-8.768375269117874D-16,1.2225D0,0.0D0,                   0000017P     26
-9.045931025274163D-16,1.081235004466715D0,1.201235004466715D0,  0000017P     27
0.0D0,0.0D0,1.0D0;                                               0000017P     28
126,1,1,1,0,1,0,0.4999999999999992D0,0.4999999999999992D0,1.0D0, 0000019P     29
1.0D0,1.0D0,1.0D0,1.2225D0,0.0D0,-9.045931025274163D-16,         0000019P     30
1.2225D0,0.0D0,0.2999999999999995D0,0.4999999999999992D0,1.0D0,  0000019P     31
1.0D0,0.0D0,0.0D0;                                               0000019P     32
126,1,1,1,0,1,0,-0.12D0,-0.12D0,-0.0D0,-0.0D0,1.0D0,1.0D0,       0000021P     33
1.2225D0,0.0D0,0.2999999999999995D0,1.2225D0,-0.12D0,            0000021P     34
0.2999999999999995D0,-0.12D0,-0.0D0,0.0D0,0.0D0,1.0D0;           0000021P     35
126,1,1,1,0,1,0,-6.09D0,-6.09D0,-5.789999999999999D0,            0000023P     36
-5.789999999999999D0,1.0D0,1.0D0,1.2225D0,-0.12D0,               0000023P     37
0.2999999999999995D0,1.2225D0,-0.12D0,-8.768375269117874D-16,    0000023P     38
-6.09D0,-5.789999999999999D0,1.0D0,0.0D0,0.0D0;                  0000023P     39
102,4,17,19,21,23;                                               0000025P     40
142,0,5,15,25,1;                                                 0000027P     41
144,5,1,0,27;                                                    0000029P     42
S0000001G0000011D0000030P0000042                                        T      1
