Second order wave drift forces ----- File created by OW3D-Seakeeping ----- Mon May  6 15:06:23 2024
	Number of frequencies:49
	Froude number:1.514456e-02
	Beta:1.550000e+02
1.561323e+00   1.595105e+00	1  -4.389285e+04  -3.913194e+04  -6.251749e+04
1.604982e+00   1.640680e+00	1  -4.293117e+04  -3.789490e+04  -7.895637e+04
1.648590e+00   1.686254e+00	1  -4.181168e+04  -3.685093e+04  -9.959565e+04
1.692148e+00   1.731828e+00	1  -4.056039e+04  -3.609624e+04  -1.226344e+05
1.735656e+00   1.777403e+00	1  -3.920205e+04  -3.571070e+04  -1.451337e+05
1.779114e+00   1.822977e+00	1  -3.775977e+04  -3.574839e+04  -1.632937e+05
1.822521e+00   1.868552e+00	1  -3.625464e+04  -3.622872e+04  -1.730713e+05
1.865880e+00   1.914126e+00	1  -3.470532e+04  -3.712953e+04  -1.711215e+05
1.909188e+00   1.959701e+00	1  -3.312778e+04  -3.838306e+04  -1.559421e+05
1.952448e+00   2.005275e+00	1  -3.153505e+04  -3.987595e+04  -1.289789e+05
1.995658e+00   2.050849e+00	1  -2.993705e+04  -4.145386e+04  -9.534553e+04
2.038819e+00   2.096424e+00	1  -2.834054e+04  -4.293127e+04  -6.377151e+04
2.081932e+00   2.141998e+00	1  -2.674920e+04  -4.410605e+04  -4.546236e+04
2.124996e+00   2.187573e+00	1  -2.516379e+04  -4.477798e+04  -5.177423e+04
2.168011e+00   2.233147e+00	1  -2.358241e+04  -4.476966e+04  -9.096422e+04
2.210978e+00   2.278722e+00	1  -2.200092e+04  -4.394767e+04  -1.647146e+05
2.253897e+00   2.324296e+00	1  -2.041339e+04  -4.224129e+04  -2.655110e+05
2.296768e+00   2.369870e+00	1  -1.881268e+04  -3.965627e+04  -3.761022e+05
2.339591e+00   2.415445e+00	1  -1.719103e+04  -3.628127e+04  -4.720052e+05
2.382366e+00   2.461019e+00	1  -1.554079e+04  -3.228523e+04  -5.272673e+05
2.425094e+00   2.506594e+00	1  -1.385508e+04  -2.790530e+04  -5.225375e+05
2.467775e+00   2.552168e+00	1  -1.212848e+04  -2.342620e+04  -4.532616e+05
2.510408e+00   2.597743e+00	1  -1.035759e+04  -1.915310e+04  -3.349870e+05
2.552994e+00   2.643317e+00	1  -8.541571e+03  -1.538135e+04  -2.028752e+05
2.595533e+00   2.688891e+00	1  -6.682372e+03  -1.236706e+04  -1.038848e+05
2.638026e+00   2.734466e+00	1  -4.784821e+03  -1.030208e+04  -8.257629e+04
2.680472e+00   2.780040e+00	1  -2.856356e+03  -9.296302e+03  -1.643967e+05
2.722872e+00   2.825615e+00	1  -9.064526e+02  -9.368413e+03  -3.424771e+05
2.765225e+00   2.871189e+00	1   1.054278e+03  -1.044479e+04  -5.742100e+05
2.807532e+00   2.916764e+00	1   3.015277e+03  -1.236435e+04  -7.914182e+05
2.849793e+00   2.962338e+00	1   4.967414e+03  -1.488684e+04  -9.230556e+05
2.892009e+00   3.007912e+00	1   6.904409e+03  -1.770226e+04  -9.235830e+05
2.934178e+00   3.053487e+00	1   8.824090e+03  -2.044115e+04  -7.958645e+05
2.976303e+00   3.099061e+00	1   1.072924e+04  -2.268774e+04  -5.971698e+05
3.018381e+00   3.144636e+00	1   1.262776e+04  -2.400063e+04  -4.219969e+05
3.060415e+00   3.190210e+00	1   1.453195e+04  -2.394658e+04  -3.650147e+05
3.102403e+00   3.235785e+00	1   1.645665e+04  -2.215207e+04  -4.778505e+05
3.144347e+00   3.281359e+00	1   1.841636e+04  -1.837250e+04  -7.394619e+05
3.186246e+00   3.326933e+00	1   2.042143e+04  -1.257204e+04  -1.056991e+06
3.228100e+00   3.372508e+00	1   2.247382e+04  -4.998679e+03  -1.301619e+06
3.269909e+00   3.418082e+00	1   2.456318e+04   3.768006e+03  -1.366735e+06
3.311674e+00   3.463657e+00	1   2.666414e+04   1.282120e+04  -1.222447e+06
3.353395e+00   3.509231e+00	1   2.873586e+04   2.100318e+04  -9.393427e+05
3.395072e+00   3.554806e+00	1   3.072493e+04   2.706015e+04  -6.675871e+05
3.436705e+00   3.600380e+00	1   3.257204e+04   2.986189e+04  -5.783239e+05
3.478294e+00   3.645954e+00	1   3.422260e+04   2.864942e+04  -7.910759e+05
3.519839e+00   3.691529e+00	1   3.564042e+04   2.325579e+04  -1.314816e+06
3.561341e+00   3.737103e+00	1   3.682275e+04   1.423751e+04  -2.023255e+06
3.602800e+00   3.782678e+00	1   3.781406e+04   2.864386e+03  -2.676679e+06
1.561323e+00   1.595105e+00	2   0.000000e+00   0.000000e+00   0.000000e+00
1.604982e+00   1.640680e+00	2   0.000000e+00   0.000000e+00   0.000000e+00
1.648590e+00   1.686254e+00	2   0.000000e+00   0.000000e+00   0.000000e+00
1.692148e+00   1.731828e+00	2   0.000000e+00   0.000000e+00   0.000000e+00
1.735656e+00   1.777403e+00	2   0.000000e+00   0.000000e+00   0.000000e+00
1.779114e+00   1.822977e+00	2   0.000000e+00   0.000000e+00   0.000000e+00
1.822521e+00   1.868552e+00	2   0.000000e+00   0.000000e+00   0.000000e+00
1.865880e+00   1.914126e+00	2   0.000000e+00   0.000000e+00   0.000000e+00
1.909188e+00   1.959701e+00	2   0.000000e+00   0.000000e+00   0.000000e+00
1.952448e+00   2.005275e+00	2   0.000000e+00   0.000000e+00   0.000000e+00
1.995658e+00   2.050849e+00	2   0.000000e+00   0.000000e+00   0.000000e+00
2.038819e+00   2.096424e+00	2   0.000000e+00   0.000000e+00   0.000000e+00
2.081932e+00   2.141998e+00	2   0.000000e+00   0.000000e+00   0.000000e+00
2.124996e+00   2.187573e+00	2   0.000000e+00   0.000000e+00   0.000000e+00
2.168011e+00   2.233147e+00	2   0.000000e+00   0.000000e+00   0.000000e+00
2.210978e+00   2.278722e+00	2   0.000000e+00   0.000000e+00   0.000000e+00
2.253897e+00   2.324296e+00	2   0.000000e+00   0.000000e+00   0.000000e+00
2.296768e+00   2.369870e+00	2   0.000000e+00   0.000000e+00   0.000000e+00
2.339591e+00   2.415445e+00	2   0.000000e+00   0.000000e+00   0.000000e+00
2.382366e+00   2.461019e+00	2   0.000000e+00   0.000000e+00   0.000000e+00
2.425094e+00   2.506594e+00	2   0.000000e+00   0.000000e+00   0.000000e+00
2.467775e+00   2.552168e+00	2   0.000000e+00   0.000000e+00   0.000000e+00
2.510408e+00   2.597743e+00	2   0.000000e+00   0.000000e+00   0.000000e+00
2.552994e+00   2.643317e+00	2   0.000000e+00   0.000000e+00   0.000000e+00
2.595533e+00   2.688891e+00	2   0.000000e+00   0.000000e+00   0.000000e+00
2.638026e+00   2.734466e+00	2   0.000000e+00   0.000000e+00   0.000000e+00
2.680472e+00   2.780040e+00	2   0.000000e+00   0.000000e+00   0.000000e+00
2.722872e+00   2.825615e+00	2   0.000000e+00   0.000000e+00   0.000000e+00
2.765225e+00   2.871189e+00	2   0.000000e+00   0.000000e+00   0.000000e+00
2.807532e+00   2.916764e+00	2   0.000000e+00   0.000000e+00   0.000000e+00
2.849793e+00   2.962338e+00	2   0.000000e+00   0.000000e+00   0.000000e+00
2.892009e+00   3.007912e+00	2   0.000000e+00   0.000000e+00   0.000000e+00
2.934178e+00   3.053487e+00	2   0.000000e+00   0.000000e+00   0.000000e+00
2.976303e+00   3.099061e+00	2   0.000000e+00   0.000000e+00   0.000000e+00
3.018381e+00   3.144636e+00	2   0.000000e+00   0.000000e+00   0.000000e+00
3.060415e+00   3.190210e+00	2   0.000000e+00   0.000000e+00   0.000000e+00
3.102403e+00   3.235785e+00	2   0.000000e+00   0.000000e+00   0.000000e+00
3.144347e+00   3.281359e+00	2   0.000000e+00   0.000000e+00   0.000000e+00
3.186246e+00   3.326933e+00	2   0.000000e+00   0.000000e+00   0.000000e+00
3.228100e+00   3.372508e+00	2   0.000000e+00   0.000000e+00   0.000000e+00
3.269909e+00   3.418082e+00	2   0.000000e+00   0.000000e+00   0.000000e+00
3.311674e+00   3.463657e+00	2   0.000000e+00   0.000000e+00   0.000000e+00
3.353395e+00   3.509231e+00	2   0.000000e+00   0.000000e+00   0.000000e+00
3.395072e+00   3.554806e+00	2   0.000000e+00   0.000000e+00   0.000000e+00
3.436705e+00   3.600380e+00	2   0.000000e+00   0.000000e+00   0.000000e+00
3.478294e+00   3.645954e+00	2   0.000000e+00   0.000000e+00   0.000000e+00
3.519839e+00   3.691529e+00	2   0.000000e+00   0.000000e+00   0.000000e+00
3.561341e+00   3.737103e+00	2   0.000000e+00   0.000000e+00   0.000000e+00
3.602800e+00   3.782678e+00	2   0.000000e+00   0.000000e+00   0.000000e+00
1.561323e+00   1.595105e+00	3   0.000000e+00   0.000000e+00   0.000000e+00
1.604982e+00   1.640680e+00	3   0.000000e+00   0.000000e+00   0.000000e+00
1.648590e+00   1.686254e+00	3   0.000000e+00   0.000000e+00   0.000000e+00
1.692148e+00   1.731828e+00	3   0.000000e+00   0.000000e+00   0.000000e+00
1.735656e+00   1.777403e+00	3   0.000000e+00   0.000000e+00   0.000000e+00
1.779114e+00   1.822977e+00	3   0.000000e+00   0.000000e+00   0.000000e+00
1.822521e+00   1.868552e+00	3   0.000000e+00   0.000000e+00   0.000000e+00
1.865880e+00   1.914126e+00	3   0.000000e+00   0.000000e+00   0.000000e+00
1.909188e+00   1.959701e+00	3   0.000000e+00   0.000000e+00   0.000000e+00
1.952448e+00   2.005275e+00	3   0.000000e+00   0.000000e+00   0.000000e+00
1.995658e+00   2.050849e+00	3   0.000000e+00   0.000000e+00   0.000000e+00
2.038819e+00   2.096424e+00	3   0.000000e+00   0.000000e+00   0.000000e+00
2.081932e+00   2.141998e+00	3   0.000000e+00   0.000000e+00   0.000000e+00
2.124996e+00   2.187573e+00	3   0.000000e+00   0.000000e+00   0.000000e+00
2.168011e+00   2.233147e+00	3   0.000000e+00   0.000000e+00   0.000000e+00
2.210978e+00   2.278722e+00	3   0.000000e+00   0.000000e+00   0.000000e+00
2.253897e+00   2.324296e+00	3   0.000000e+00   0.000000e+00   0.000000e+00
2.296768e+00   2.369870e+00	3   0.000000e+00   0.000000e+00   0.000000e+00
2.339591e+00   2.415445e+00	3   0.000000e+00   0.000000e+00   0.000000e+00
2.382366e+00   2.461019e+00	3   0.000000e+00   0.000000e+00   0.000000e+00
2.425094e+00   2.506594e+00	3   0.000000e+00   0.000000e+00   0.000000e+00
2.467775e+00   2.552168e+00	3   0.000000e+00   0.000000e+00   0.000000e+00
2.510408e+00   2.597743e+00	3   0.000000e+00   0.000000e+00   0.000000e+00
2.552994e+00   2.643317e+00	3   0.000000e+00   0.000000e+00   0.000000e+00
2.595533e+00   2.688891e+00	3   0.000000e+00   0.000000e+00   0.000000e+00
2.638026e+00   2.734466e+00	3   0.000000e+00   0.000000e+00   0.000000e+00
2.680472e+00   2.780040e+00	3   0.000000e+00   0.000000e+00   0.000000e+00
2.722872e+00   2.825615e+00	3   0.000000e+00   0.000000e+00   0.000000e+00
2.765225e+00   2.871189e+00	3   0.000000e+00   0.000000e+00   0.000000e+00
2.807532e+00   2.916764e+00	3   0.000000e+00   0.000000e+00   0.000000e+00
2.849793e+00   2.962338e+00	3   0.000000e+00   0.000000e+00   0.000000e+00
2.892009e+00   3.007912e+00	3   0.000000e+00   0.000000e+00   0.000000e+00
2.934178e+00   3.053487e+00	3   0.000000e+00   0.000000e+00   0.000000e+00
2.976303e+00   3.099061e+00	3   0.000000e+00   0.000000e+00   0.000000e+00
3.018381e+00   3.144636e+00	3   0.000000e+00   0.000000e+00   0.000000e+00
3.060415e+00   3.190210e+00	3   0.000000e+00   0.000000e+00   0.000000e+00
3.102403e+00   3.235785e+00	3   0.000000e+00   0.000000e+00   0.000000e+00
3.144347e+00   3.281359e+00	3   0.000000e+00   0.000000e+00   0.000000e+00
3.186246e+00   3.326933e+00	3   0.000000e+00   0.000000e+00   0.000000e+00
3.228100e+00   3.372508e+00	3   0.000000e+00   0.000000e+00   0.000000e+00
3.269909e+00   3.418082e+00	3   0.000000e+00   0.000000e+00   0.000000e+00
3.311674e+00   3.463657e+00	3   0.000000e+00   0.000000e+00   0.000000e+00
3.353395e+00   3.509231e+00	3   0.000000e+00   0.000000e+00   0.000000e+00
3.395072e+00   3.554806e+00	3   0.000000e+00   0.000000e+00   0.000000e+00
3.436705e+00   3.600380e+00	3   0.000000e+00   0.000000e+00   0.000000e+00
3.478294e+00   3.645954e+00	3   0.000000e+00   0.000000e+00   0.000000e+00
3.519839e+00   3.691529e+00	3   0.000000e+00   0.000000e+00   0.000000e+00
3.561341e+00   3.737103e+00	3   0.000000e+00   0.000000e+00   0.000000e+00
3.602800e+00   3.782678e+00	3   0.000000e+00   0.000000e+00   0.000000e+00
1.561323e+00   1.595105e+00	4   0.000000e+00   0.000000e+00   0.000000e+00
1.604982e+00   1.640680e+00	4   0.000000e+00   0.000000e+00   0.000000e+00
1.648590e+00   1.686254e+00	4   0.000000e+00   0.000000e+00   0.000000e+00
1.692148e+00   1.731828e+00	4   0.000000e+00   0.000000e+00   0.000000e+00
1.735656e+00   1.777403e+00	4   0.000000e+00   0.000000e+00   0.000000e+00
1.779114e+00   1.822977e+00	4   0.000000e+00   0.000000e+00   0.000000e+00
1.822521e+00   1.868552e+00	4   0.000000e+00   0.000000e+00   0.000000e+00
1.865880e+00   1.914126e+00	4   0.000000e+00   0.000000e+00   0.000000e+00
1.909188e+00   1.959701e+00	4   0.000000e+00   0.000000e+00   0.000000e+00
1.952448e+00   2.005275e+00	4   0.000000e+00   0.000000e+00   0.000000e+00
1.995658e+00   2.050849e+00	4   0.000000e+00   0.000000e+00   0.000000e+00
2.038819e+00   2.096424e+00	4   0.000000e+00   0.000000e+00   0.000000e+00
2.081932e+00   2.141998e+00	4   0.000000e+00   0.000000e+00   0.000000e+00
2.124996e+00   2.187573e+00	4   0.000000e+00   0.000000e+00   0.000000e+00
2.168011e+00   2.233147e+00	4   0.000000e+00   0.000000e+00   0.000000e+00
2.210978e+00   2.278722e+00	4   0.000000e+00   0.000000e+00   0.000000e+00
2.253897e+00   2.324296e+00	4   0.000000e+00   0.000000e+00   0.000000e+00
2.296768e+00   2.369870e+00	4   0.000000e+00   0.000000e+00   0.000000e+00
2.339591e+00   2.415445e+00	4   0.000000e+00   0.000000e+00   0.000000e+00
2.382366e+00   2.461019e+00	4   0.000000e+00   0.000000e+00   0.000000e+00
2.425094e+00   2.506594e+00	4   0.000000e+00   0.000000e+00   0.000000e+00
2.467775e+00   2.552168e+00	4   0.000000e+00   0.000000e+00   0.000000e+00
2.510408e+00   2.597743e+00	4   0.000000e+00   0.000000e+00   0.000000e+00
2.552994e+00   2.643317e+00	4   0.000000e+00   0.000000e+00   0.000000e+00
2.595533e+00   2.688891e+00	4   0.000000e+00   0.000000e+00   0.000000e+00
2.638026e+00   2.734466e+00	4   0.000000e+00   0.000000e+00   0.000000e+00
2.680472e+00   2.780040e+00	4   0.000000e+00   0.000000e+00   0.000000e+00
2.722872e+00   2.825615e+00	4   0.000000e+00   0.000000e+00   0.000000e+00
2.765225e+00   2.871189e+00	4   0.000000e+00   0.000000e+00   0.000000e+00
2.807532e+00   2.916764e+00	4   0.000000e+00   0.000000e+00   0.000000e+00
2.849793e+00   2.962338e+00	4   0.000000e+00   0.000000e+00   0.000000e+00
2.892009e+00   3.007912e+00	4   0.000000e+00   0.000000e+00   0.000000e+00
2.934178e+00   3.053487e+00	4   0.000000e+00   0.000000e+00   0.000000e+00
2.976303e+00   3.099061e+00	4   0.000000e+00   0.000000e+00   0.000000e+00
3.018381e+00   3.144636e+00	4   0.000000e+00   0.000000e+00   0.000000e+00
3.060415e+00   3.190210e+00	4   0.000000e+00   0.000000e+00   0.000000e+00
3.102403e+00   3.235785e+00	4   0.000000e+00   0.000000e+00   0.000000e+00
3.144347e+00   3.281359e+00	4   0.000000e+00   0.000000e+00   0.000000e+00
3.186246e+00   3.326933e+00	4   0.000000e+00   0.000000e+00   0.000000e+00
3.228100e+00   3.372508e+00	4   0.000000e+00   0.000000e+00   0.000000e+00
3.269909e+00   3.418082e+00	4   0.000000e+00   0.000000e+00   0.000000e+00
3.311674e+00   3.463657e+00	4   0.000000e+00   0.000000e+00   0.000000e+00
3.353395e+00   3.509231e+00	4   0.000000e+00   0.000000e+00   0.000000e+00
3.395072e+00   3.554806e+00	4   0.000000e+00   0.000000e+00   0.000000e+00
3.436705e+00   3.600380e+00	4   0.000000e+00   0.000000e+00   0.000000e+00
3.478294e+00   3.645954e+00	4   0.000000e+00   0.000000e+00   0.000000e+00
3.519839e+00   3.691529e+00	4   0.000000e+00   0.000000e+00   0.000000e+00
3.561341e+00   3.737103e+00	4   0.000000e+00   0.000000e+00   0.000000e+00
3.602800e+00   3.782678e+00	4   0.000000e+00   0.000000e+00   0.000000e+00
1.561323e+00   1.595105e+00	5   0.000000e+00   0.000000e+00   0.000000e+00
1.604982e+00   1.640680e+00	5   0.000000e+00   0.000000e+00   0.000000e+00
1.648590e+00   1.686254e+00	5   0.000000e+00   0.000000e+00   0.000000e+00
1.692148e+00   1.731828e+00	5   0.000000e+00   0.000000e+00   0.000000e+00
1.735656e+00   1.777403e+00	5   0.000000e+00   0.000000e+00   0.000000e+00
1.779114e+00   1.822977e+00	5   0.000000e+00   0.000000e+00   0.000000e+00
1.822521e+00   1.868552e+00	5   0.000000e+00   0.000000e+00   0.000000e+00
1.865880e+00   1.914126e+00	5   0.000000e+00   0.000000e+00   0.000000e+00
1.909188e+00   1.959701e+00	5   0.000000e+00   0.000000e+00   0.000000e+00
1.952448e+00   2.005275e+00	5   0.000000e+00   0.000000e+00   0.000000e+00
1.995658e+00   2.050849e+00	5   0.000000e+00   0.000000e+00   0.000000e+00
2.038819e+00   2.096424e+00	5   0.000000e+00   0.000000e+00   0.000000e+00
2.081932e+00   2.141998e+00	5   0.000000e+00   0.000000e+00   0.000000e+00
2.124996e+00   2.187573e+00	5   0.000000e+00   0.000000e+00   0.000000e+00
2.168011e+00   2.233147e+00	5   0.000000e+00   0.000000e+00   0.000000e+00
2.210978e+00   2.278722e+00	5   0.000000e+00   0.000000e+00   0.000000e+00
2.253897e+00   2.324296e+00	5   0.000000e+00   0.000000e+00   0.000000e+00
2.296768e+00   2.369870e+00	5   0.000000e+00   0.000000e+00   0.000000e+00
2.339591e+00   2.415445e+00	5   0.000000e+00   0.000000e+00   0.000000e+00
2.382366e+00   2.461019e+00	5   0.000000e+00   0.000000e+00   0.000000e+00
2.425094e+00   2.506594e+00	5   0.000000e+00   0.000000e+00   0.000000e+00
2.467775e+00   2.552168e+00	5   0.000000e+00   0.000000e+00   0.000000e+00
2.510408e+00   2.597743e+00	5   0.000000e+00   0.000000e+00   0.000000e+00
2.552994e+00   2.643317e+00	5   0.000000e+00   0.000000e+00   0.000000e+00
2.595533e+00   2.688891e+00	5   0.000000e+00   0.000000e+00   0.000000e+00
2.638026e+00   2.734466e+00	5   0.000000e+00   0.000000e+00   0.000000e+00
2.680472e+00   2.780040e+00	5   0.000000e+00   0.000000e+00   0.000000e+00
2.722872e+00   2.825615e+00	5   0.000000e+00   0.000000e+00   0.000000e+00
2.765225e+00   2.871189e+00	5   0.000000e+00   0.000000e+00   0.000000e+00
2.807532e+00   2.916764e+00	5   0.000000e+00   0.000000e+00   0.000000e+00
2.849793e+00   2.962338e+00	5   0.000000e+00   0.000000e+00   0.000000e+00
2.892009e+00   3.007912e+00	5   0.000000e+00   0.000000e+00   0.000000e+00
2.934178e+00   3.053487e+00	5   0.000000e+00   0.000000e+00   0.000000e+00
2.976303e+00   3.099061e+00	5   0.000000e+00   0.000000e+00   0.000000e+00
3.018381e+00   3.144636e+00	5   0.000000e+00   0.000000e+00   0.000000e+00
3.060415e+00   3.190210e+00	5   0.000000e+00   0.000000e+00   0.000000e+00
3.102403e+00   3.235785e+00	5   0.000000e+00   0.000000e+00   0.000000e+00
3.144347e+00   3.281359e+00	5   0.000000e+00   0.000000e+00   0.000000e+00
3.186246e+00   3.326933e+00	5   0.000000e+00   0.000000e+00   0.000000e+00
3.228100e+00   3.372508e+00	5   0.000000e+00   0.000000e+00   0.000000e+00
3.269909e+00   3.418082e+00	5   0.000000e+00   0.000000e+00   0.000000e+00
3.311674e+00   3.463657e+00	5   0.000000e+00   0.000000e+00   0.000000e+00
3.353395e+00   3.509231e+00	5   0.000000e+00   0.000000e+00   0.000000e+00
3.395072e+00   3.554806e+00	5   0.000000e+00   0.000000e+00   0.000000e+00
3.436705e+00   3.600380e+00	5   0.000000e+00   0.000000e+00   0.000000e+00
3.478294e+00   3.645954e+00	5   0.000000e+00   0.000000e+00   0.000000e+00
3.519839e+00   3.691529e+00	5   0.000000e+00   0.000000e+00   0.000000e+00
3.561341e+00   3.737103e+00	5   0.000000e+00   0.000000e+00   0.000000e+00
3.602800e+00   3.782678e+00	5   0.000000e+00   0.000000e+00   0.000000e+00
1.561323e+00   1.595105e+00	6   0.000000e+00   0.000000e+00   0.000000e+00
1.604982e+00   1.640680e+00	6   0.000000e+00   0.000000e+00   0.000000e+00
1.648590e+00   1.686254e+00	6   0.000000e+00   0.000000e+00   0.000000e+00
1.692148e+00   1.731828e+00	6   0.000000e+00   0.000000e+00   0.000000e+00
1.735656e+00   1.777403e+00	6   0.000000e+00   0.000000e+00   0.000000e+00
1.779114e+00   1.822977e+00	6   0.000000e+00   0.000000e+00   0.000000e+00
1.822521e+00   1.868552e+00	6   0.000000e+00   0.000000e+00   0.000000e+00
1.865880e+00   1.914126e+00	6   0.000000e+00   0.000000e+00   0.000000e+00
1.909188e+00   1.959701e+00	6   0.000000e+00   0.000000e+00   0.000000e+00
1.952448e+00   2.005275e+00	6   0.000000e+00   0.000000e+00   0.000000e+00
1.995658e+00   2.050849e+00	6   0.000000e+00   0.000000e+00   0.000000e+00
2.038819e+00   2.096424e+00	6   0.000000e+00   0.000000e+00   0.000000e+00
2.081932e+00   2.141998e+00	6   0.000000e+00   0.000000e+00   0.000000e+00
2.124996e+00   2.187573e+00	6   0.000000e+00   0.000000e+00   0.000000e+00
2.168011e+00   2.233147e+00	6   0.000000e+00   0.000000e+00   0.000000e+00
2.210978e+00   2.278722e+00	6   0.000000e+00   0.000000e+00   0.000000e+00
2.253897e+00   2.324296e+00	6   0.000000e+00   0.000000e+00   0.000000e+00
2.296768e+00   2.369870e+00	6   0.000000e+00   0.000000e+00   0.000000e+00
2.339591e+00   2.415445e+00	6   0.000000e+00   0.000000e+00   0.000000e+00
2.382366e+00   2.461019e+00	6   0.000000e+00   0.000000e+00   0.000000e+00
2.425094e+00   2.506594e+00	6   0.000000e+00   0.000000e+00   0.000000e+00
2.467775e+00   2.552168e+00	6   0.000000e+00   0.000000e+00   0.000000e+00
2.510408e+00   2.597743e+00	6   0.000000e+00   0.000000e+00   0.000000e+00
2.552994e+00   2.643317e+00	6   0.000000e+00   0.000000e+00   0.000000e+00
2.595533e+00   2.688891e+00	6   0.000000e+00   0.000000e+00   0.000000e+00
2.638026e+00   2.734466e+00	6   0.000000e+00   0.000000e+00   0.000000e+00
2.680472e+00   2.780040e+00	6   0.000000e+00   0.000000e+00   0.000000e+00
2.722872e+00   2.825615e+00	6   0.000000e+00   0.000000e+00   0.000000e+00
2.765225e+00   2.871189e+00	6   0.000000e+00   0.000000e+00   0.000000e+00
2.807532e+00   2.916764e+00	6   0.000000e+00   0.000000e+00   0.000000e+00
2.849793e+00   2.962338e+00	6   0.000000e+00   0.000000e+00   0.000000e+00
2.892009e+00   3.007912e+00	6   0.000000e+00   0.000000e+00   0.000000e+00
2.934178e+00   3.053487e+00	6   0.000000e+00   0.000000e+00   0.000000e+00
2.976303e+00   3.099061e+00	6   0.000000e+00   0.000000e+00   0.000000e+00
3.018381e+00   3.144636e+00	6   0.000000e+00   0.000000e+00   0.000000e+00
3.060415e+00   3.190210e+00	6   0.000000e+00   0.000000e+00   0.000000e+00
3.102403e+00   3.235785e+00	6   0.000000e+00   0.000000e+00   0.000000e+00
3.144347e+00   3.281359e+00	6   0.000000e+00   0.000000e+00   0.000000e+00
3.186246e+00   3.326933e+00	6   0.000000e+00   0.000000e+00   0.000000e+00
3.228100e+00   3.372508e+00	6   0.000000e+00   0.000000e+00   0.000000e+00
3.269909e+00   3.418082e+00	6   0.000000e+00   0.000000e+00   0.000000e+00
3.311674e+00   3.463657e+00	6   0.000000e+00   0.000000e+00   0.000000e+00
3.353395e+00   3.509231e+00	6   0.000000e+00   0.000000e+00   0.000000e+00
3.395072e+00   3.554806e+00	6   0.000000e+00   0.000000e+00   0.000000e+00
3.436705e+00   3.600380e+00	6   0.000000e+00   0.000000e+00   0.000000e+00
3.478294e+00   3.645954e+00	6   0.000000e+00   0.000000e+00   0.000000e+00
3.519839e+00   3.691529e+00	6   0.000000e+00   0.000000e+00   0.000000e+00
3.561341e+00   3.737103e+00	6   0.000000e+00   0.000000e+00   0.000000e+00
3.602800e+00   3.782678e+00	6   0.000000e+00   0.000000e+00   0.000000e+00
