Response amplitude operators ----- File created by OW3D-Seakeeping ----- Thu Jun  1 15:15:22 2023
	Number of frequencies:49
	Froude number:1.514456e-02
	Beta:1.550000e+02
1.561323e+00   1.595105e+00	3	   1.853177e-02   7.467313e-02   7.693830e-02
1.604982e+00   1.640680e+00	3	   1.161303e-02   9.080038e-02   9.154000e-02
1.648590e+00   1.686254e+00	3	   6.740611e-03   1.048355e-01   1.050520e-01
1.692148e+00   1.731828e+00	3	   3.676233e-03   1.167046e-01   1.167625e-01
1.735656e+00   1.777403e+00	3	   2.177133e-03   1.263656e-01   1.263843e-01
1.779114e+00   1.822977e+00	3	   1.999905e-03   1.338073e-01   1.338222e-01
1.822521e+00   1.868552e+00	3	   2.904138e-03   1.390475e-01   1.390779e-01
1.865880e+00   1.914126e+00	3	   4.655729e-03   1.421312e-01   1.422074e-01
1.909188e+00   1.959701e+00	3	   7.029832e-03   1.431274e-01   1.432999e-01
1.952448e+00   2.005275e+00	3	   9.813404e-03   1.421272e-01   1.424656e-01
1.995658e+00   2.050849e+00	3	   1.280732e-02   1.392405e-01   1.398282e-01
2.038819e+00   2.096424e+00	3	   1.582807e-02   1.345929e-01   1.355204e-01
2.081932e+00   2.141998e+00	3	   1.870897e-02   1.283231e-01   1.296798e-01
2.124996e+00   2.187573e+00	3	   2.130107e-02   1.205798e-01   1.224468e-01
2.168011e+00   2.233147e+00	3	   2.347354e-02   1.115189e-01   1.139626e-01
2.210978e+00   2.278722e+00	3	   2.511382e-02   1.013008e-01   1.043674e-01
2.253897e+00   2.324296e+00	3	   2.612738e-02   9.008846e-02   9.380070e-02
2.296768e+00   2.369870e+00	3	   2.643733e-02   7.804486e-02   8.240105e-02
2.339591e+00   2.415445e+00	3	   2.598374e-02   6.533154e-02   7.030907e-02
2.382366e+00   2.461019e+00	3	   2.472286e-02   5.210714e-02   5.767473e-02
2.425094e+00   2.506594e+00	3	   2.262635e-02   3.852633e-02   4.467919e-02
2.467775e+00   2.552168e+00	3	   1.968039e-02   2.473908e-02   3.161234e-02
2.510408e+00   2.597743e+00	3	   1.588494e-02   1.089029e-02   1.925953e-02
2.552994e+00   2.643317e+00	3	   1.125304e-02  -2.880423e-03   1.161584e-02
2.595533e+00   2.688891e+00	3	   5.810340e-03  -1.643857e-02   1.743521e-02
2.638026e+00   2.734466e+00	3	  -4.052599e-04  -2.965460e-02   2.965737e-02
2.680472e+00   2.780040e+00	3	  -7.343756e-03  -4.240362e-02   4.303484e-02
2.722872e+00   2.825615e+00	3	  -1.494299e-02  -5.456504e-02   5.657417e-02
2.765225e+00   2.871189e+00	3	  -2.312841e-02  -6.602238e-02   6.995626e-02
2.807532e+00   2.916764e+00	3	  -3.181279e-02  -7.666319e-02   8.300180e-02
2.849793e+00   2.962338e+00	3	  -4.089570e-02  -8.637922e-02   9.557107e-02
2.892009e+00   3.007912e+00	3	  -5.026318e-02  -9.506685e-02   1.075365e-01
2.934178e+00   3.053487e+00	3	  -5.978726e-02  -1.026278e-01   1.187728e-01
2.976303e+00   3.099061e+00	3	  -6.932581e-02  -1.089704e-01   1.291534e-01
3.018381e+00   3.144636e+00	3	  -7.872246e-02  -1.140106e-01   1.385483e-01
3.060415e+00   3.190210e+00	3	  -8.780693e-02  -1.176742e-01   1.468239e-01
3.102403e+00   3.235785e+00	3	  -9.639566e-02  -1.198984e-01   1.538433e-01
3.144347e+00   3.281359e+00	3	  -1.042929e-01  -1.206343e-01   1.594667e-01
3.186246e+00   3.326933e+00	3	  -1.112921e-01  -1.198489e-01   1.635533e-01
3.228100e+00   3.372508e+00	3	  -1.171783e-01  -1.175274e-01   1.659622e-01
3.269909e+00   3.418082e+00	3	  -1.217298e-01  -1.136756e-01   1.665542e-01
3.311674e+00   3.463657e+00	3	  -1.247221e-01  -1.083217e-01   1.651944e-01
3.353395e+00   3.509231e+00	3	  -1.259302e-01  -1.015179e-01   1.617538e-01
3.395072e+00   3.554806e+00	3	  -1.251329e-01  -9.334213e-02   1.561121e-01
3.436705e+00   3.600380e+00	3	  -1.221165e-01  -8.389864e-02   1.481601e-01
3.478294e+00   3.645954e+00	3	  -1.166789e-01  -7.331853e-02   1.378027e-01
3.519839e+00   3.691529e+00	3	  -1.086344e-01  -6.175966e-02   1.249627e-01
3.561341e+00   3.737103e+00	3	  -9.781735e-02  -4.940595e-02   1.095864e-01
3.602800e+00   3.782678e+00	3	  -8.408752e-02  -3.646614e-02   9.165419e-02
1.561323e+00   1.595105e+00	4	   1.066406e-17  -7.230376e-17   7.308595e-17
1.604982e+00   1.640680e+00	4	   1.149717e-17  -6.930802e-17   7.025516e-17
1.648590e+00   1.686254e+00	4	   1.222266e-17  -6.582564e-17   6.695079e-17
1.692148e+00   1.731828e+00	4	   1.282036e-17  -6.190173e-17   6.321540e-17
1.735656e+00   1.777403e+00	4	   1.327268e-17  -5.759089e-17   5.910055e-17
1.779114e+00   1.822977e+00	4	   1.356547e-17  -5.295610e-17   5.466599e-17
1.822521e+00   1.868552e+00	4	   1.368866e-17  -4.806734e-17   4.997849e-17
1.865880e+00   1.914126e+00	4	   1.363693e-17  -4.299998e-17   4.511057e-17
1.909188e+00   1.959701e+00	4	   1.341012e-17  -3.783283e-17   4.013918e-17
1.952448e+00   2.005275e+00	4	   1.301351e-17  -3.264616e-17   3.514432e-17
1.995658e+00   2.050849e+00	4	   1.245787e-17  -2.751955e-17   3.020802e-17
2.038819e+00   2.096424e+00	4	   1.175931e-17  -2.252972e-17   2.541396e-17
2.081932e+00   2.141998e+00	4	   1.093888e-17  -1.774843e-17   2.084864e-17
2.124996e+00   2.187573e+00	4	   1.002195e-17  -1.324059e-17   1.660580e-17
2.168011e+00   2.233147e+00	4	   9.037406e-18  -9.062536e-18   1.279860e-17
2.210978e+00   2.278722e+00	4	   8.016655e-18  -5.260607e-18   9.588574e-18
2.253897e+00   2.324296e+00	4	   6.992447e-18  -1.870128e-18   7.238211e-18
2.296768e+00   2.369870e+00	4	   5.997651e-18   1.085237e-18   6.095044e-18
2.339591e+00   2.415445e+00	4	   5.063961e-18   3.593672e-18   6.209524e-18
2.382366e+00   2.461019e+00	4	   4.220618e-18   5.654971e-18   7.056367e-18
2.425094e+00   2.506594e+00	4	   3.493209e-18   7.279853e-18   8.074575e-18
2.467775e+00   2.552168e+00	4	   2.902602e-18   8.488878e-18   8.971407e-18
2.510408e+00   2.597743e+00	4	   2.464068e-18   9.311028e-18   9.631556e-18
2.552994e+00   2.643317e+00	4	   2.186647e-18   9.781990e-18   1.002341e-17
2.595533e+00   2.688891e+00	4	   2.072784e-18   9.942260e-18   1.015603e-17
2.638026e+00   2.734466e+00	4	   2.118267e-18   9.835138e-18   1.006067e-17
2.680472e+00   2.780040e+00	4	   2.312472e-18   9.504717e-18   9.781982e-18
2.722872e+00   2.825615e+00	4	   2.638904e-18   8.993967e-18   9.373114e-18
2.765225e+00   2.871189e+00	4	   3.076018e-18   8.343002e-18   8.891995e-18
2.807532e+00   2.916764e+00	4	   3.598265e-18   7.587614e-18   8.397583e-18
2.849793e+00   2.962338e+00	4	   4.177322e-18   6.758130e-18   7.944957e-18
2.892009e+00   3.007912e+00	4	   4.783433e-18   5.878652e-18   7.578904e-18
2.934178e+00   3.053487e+00	4	   5.386789e-18   4.966689e-18   7.327039e-18
2.976303e+00   3.099061e+00	4	   5.958881e-18   4.033191e-18   7.195477e-18
3.018381e+00   3.144636e+00	4	   6.473732e-18   3.082964e-18   7.170347e-18
3.060415e+00   3.190210e+00	4	   6.908971e-18   2.115420e-18   7.225571e-18
3.102403e+00   3.235785e+00	4	   7.246667e-18   1.125597e-18   7.333563e-18
3.144347e+00   3.281359e+00	4	   7.473894e-18   1.053912e-19   7.474637e-18
3.186246e+00   3.326933e+00	4	   7.583004e-18  -9.551008e-19   7.642917e-18
3.228100e+00   3.372508e+00	4	   7.571599e-18  -2.066201e-18   7.848459e-18
3.269909e+00   3.418082e+00	4	   7.442216e-18  -3.237322e-18   8.115838e-18
3.311674e+00   3.463657e+00	4	   7.201756e-18  -4.475756e-18   8.479250e-18
3.353395e+00   3.509231e+00	4	   6.860715e-18  -5.785661e-18   8.974590e-18
3.395072e+00   3.554806e+00	4	   6.432249e-18  -7.167269e-18   9.630346e-18
3.436705e+00   3.600380e+00	4	   5.931177e-18  -8.616361e-18   1.046043e-17
3.478294e+00   3.645954e+00	4	   5.372955e-18  -1.012401e-17   1.146142e-17
3.519839e+00   3.691529e+00	4	   4.772708e-18  -1.167655e-17   1.261430e-17
3.561341e+00   3.737103e+00	4	   4.144379e-18  -1.325587e-17   1.388863e-17
3.602800e+00   3.782678e+00	4	   3.500032e-18  -1.483973e-17   1.524689e-17
1.561323e+00   1.595105e+00	5	   1.099330e-02  -4.326521e-02   4.464001e-02
1.604982e+00   1.640680e+00	5	   9.660428e-03  -3.980137e-02   4.095696e-02
1.648590e+00   1.686254e+00	5	   8.285204e-03  -3.626853e-02   3.720283e-02
1.692148e+00   1.731828e+00	5	   6.889926e-03  -3.270042e-02   3.341839e-02
1.735656e+00   1.777403e+00	5	   5.496382e-03  -2.912975e-02   2.964376e-02
1.779114e+00   1.822977e+00	5	   4.125444e-03  -2.558775e-02   2.591818e-02
1.822521e+00   1.868552e+00	5	   2.796717e-03  -2.210383e-02   2.228006e-02
1.865880e+00   1.914126e+00	5	   1.528220e-03  -1.870525e-02   1.876757e-02
1.909188e+00   1.959701e+00	5	   3.361282e-04  -1.541680e-02   1.542046e-02
1.952448e+00   2.005275e+00	5	  -7.654370e-04  -1.226062e-02   1.228449e-02
1.995658e+00   2.050849e+00	5	  -1.764557e-03  -9.255982e-03   9.422678e-03
2.038819e+00   2.096424e+00	5	  -2.651612e-03  -6.419197e-03   6.945296e-03
2.081932e+00   2.141998e+00	5	  -3.419313e-03  -3.763546e-03   5.084878e-03
2.124996e+00   2.187573e+00	5	  -4.062689e-03  -1.299299e-03   4.265398e-03
2.168011e+00   2.233147e+00	5	  -4.579012e-03   9.662203e-04   4.679843e-03
2.210978e+00   2.278722e+00	5	  -4.967678e-03   3.028498e-03   5.818043e-03
2.253897e+00   2.324296e+00	5	  -5.230055e-03   4.885639e-03   7.157020e-03
2.296768e+00   2.369870e+00	5	  -5.369281e-03   6.538124e-03   8.460274e-03
2.339591e+00   2.415445e+00	5	  -5.390050e-03   7.988518e-03   9.636859e-03
2.382366e+00   2.461019e+00	5	  -5.298377e-03   9.241144e-03   1.065230e-02
2.425094e+00   2.506594e+00	5	  -5.101345e-03   1.030173e-02   1.149562e-02
2.467775e+00   2.552168e+00	5	  -4.806870e-03   1.117703e-02   1.216684e-02
2.510408e+00   2.597743e+00	5	  -4.423457e-03   1.187445e-02   1.267160e-02
2.552994e+00   2.643317e+00	5	  -3.959988e-03   1.240170e-02   1.301859e-02
2.595533e+00   2.688891e+00	5	  -3.425526e-03   1.276644e-02   1.321803e-02
2.638026e+00   2.734466e+00	5	  -2.829153e-03   1.297596e-02   1.328080e-02
2.680472e+00   2.780040e+00	5	  -2.179845e-03   1.303693e-02   1.321791e-02
2.722872e+00   2.825615e+00	5	  -1.486380e-03   1.295521e-02   1.304020e-02
2.765225e+00   2.871189e+00	5	  -7.572878e-04   1.273571e-02   1.275821e-02
2.807532e+00   2.916764e+00	5	  -8.389522e-07   1.238232e-02   1.238232e-02
2.849793e+00   2.962338e+00	5	   7.749357e-04   1.189791e-02   1.192312e-02
2.892009e+00   3.007912e+00	5	   1.562194e-03   1.128447e-02   1.139209e-02
2.934178e+00   3.053487e+00	5	   2.353207e-03   1.054322e-02   1.080264e-02
2.976303e+00   3.099061e+00	5	   3.140273e-03   9.674846e-03   1.017172e-02
3.018381e+00   3.144636e+00	5	   3.915616e-03   8.679809e-03   9.522139e-03
3.060415e+00   3.190210e+00	5	   4.671297e-03   7.558650e-03   8.885618e-03
3.102403e+00   3.235785e+00	5	   5.399120e-03   6.312351e-03   8.306400e-03
3.144347e+00   3.281359e+00	5	   6.090574e-03   4.942708e-03   7.843816e-03
3.186246e+00   3.326933e+00	5	   6.736781e-03   3.452699e-03   7.570030e-03
3.228100e+00   3.372508e+00	5	   7.328487e-03   1.846839e-03   7.557615e-03
3.269909e+00   3.418082e+00	5	   7.856083e-03   1.314945e-04   7.857183e-03
3.311674e+00   3.463657e+00	5	   8.309654e-03  -1.684832e-03   8.478738e-03
3.353395e+00   3.509231e+00	5	   8.679073e-03  -3.591280e-03   9.392742e-03
3.395072e+00   3.554806e+00	5	   8.954122e-03  -5.574469e-03   1.054756e-02
3.436705e+00   3.600380e+00	5	   9.124646e-03  -7.618392e-03   1.188693e-02
3.478294e+00   3.645954e+00	5	   9.180727e-03  -9.704373e-03   1.335891e-02
3.519839e+00   3.691529e+00	5	   9.112886e-03  -1.181109e-02   1.491799e-02
3.561341e+00   3.737103e+00	5	   8.912296e-03  -1.391464e-02   1.652411e-02
3.602800e+00   3.782678e+00	5	   8.571001e-03  -1.598865e-02   1.814109e-02
