Second order wave drift forces ----- File created by OW3D-Seakeeping ----- Fri Aug 30 20:33:54 2024
	Number of frequencies:49
	Froude number:1.514456e-02
	Beta:1.550000e+02
1.561323e+00   1.595105e+00	1  -4.254359e+04  -3.801069e+04  -6.162374e+04
1.604982e+00   1.640680e+00	1  -4.134895e+04  -3.657854e+04  -7.781911e+04
1.648590e+00   1.686254e+00	1  -3.997843e+04  -3.533022e+04  -9.805282e+04
1.692148e+00   1.731828e+00	1  -3.846367e+04  -3.436370e+04  -1.205074e+05
1.735656e+00   1.777403e+00	1  -3.683637e+04  -3.376091e+04  -1.422578e+05
1.779114e+00   1.822977e+00	1  -3.512768e+04  -3.357832e+04  -1.595574e+05
1.822521e+00   1.868552e+00	1  -3.336754e+04  -3.383820e+04  -1.684577e+05
1.865880e+00   1.914126e+00	1  -3.158406e+04  -3.452167e+04  -1.657434e+05
1.909188e+00   1.959701e+00	1  -2.980280e+04  -3.556478e+04  -1.500569e+05
1.952448e+00   2.005275e+00	1  -2.804614e+04  -3.685846e+04  -1.229684e+05
1.995658e+00   2.050849e+00	1  -2.633266e+04  -3.825311e+04  -8.964967e+04
2.038819e+00   2.096424e+00	1  -2.467660e+04  -3.956833e+04  -5.877106e+04
2.081932e+00   2.141998e+00	1  -2.308736e+04  -4.060729e+04  -4.132255e+04
2.124996e+00   2.187573e+00	1  -2.156922e+04  -4.117499e+04  -4.828162e+04
2.168011e+00   2.233147e+00	1  -2.012110e+04  -4.109879e+04  -8.741094e+04
2.210978e+00   2.278722e+00	1  -1.873656e+04  -4.024908e+04  -1.598980e+05
2.253897e+00   2.324296e+00	1  -1.740403e+04  -3.855741e+04  -2.579106e+05
2.296768e+00   2.369870e+00	1  -1.610727e+04  -3.602952e+04  -3.642572e+05
2.339591e+00   2.415445e+00	1  -1.482615e+04  -3.275094e+04  -4.550457e+05
2.382366e+00   2.461019e+00	1  -1.353779e+04  -2.888360e+04  -5.054539e+05
2.425094e+00   2.506594e+00	1  -1.221796e+04  -2.465302e+04  -4.975784e+05
2.467775e+00   2.552168e+00	1  -1.084275e+04  -2.032707e+04  -4.281469e+05
2.510408e+00   2.597743e+00	1  -9.390539e+03  -1.618863e+04  -3.131606e+05
2.552994e+00   2.643317e+00	1  -7.843887e+03  -1.250558e+04  -1.867827e+05
2.595533e+00   2.688891e+00	1  -6.191427e+03  -9.502219e+03  -9.326778e+04
2.638026e+00   2.734466e+00	1  -4.429380e+03  -7.335871e+03  -7.320730e+04
2.680472e+00   2.780040e+00	1  -2.562516e+03  -6.081574e+03  -1.481010e+05
2.722872e+00   2.825615e+00	1  -6.043197e+02  -5.726160e+03  -3.090716e+05
2.765225e+00   2.871189e+00	1   1.423829e+03  -6.171055e+03  -5.153143e+05
2.807532e+00   2.916764e+00	1   3.494586e+03  -7.241605e+03  -7.050833e+05
2.849793e+00   2.962338e+00	1   5.577682e+03  -8.699848e+03  -8.171958e+05
2.892009e+00   3.007912e+00	1   7.643906e+03  -1.025805e+04  -8.158673e+05
2.934178e+00   3.053487e+00	1   9.669730e+03  -1.159196e+04  -7.085532e+05
2.976303e+00   3.099061e+00	1   1.164205e+04  -1.235510e+04  -5.474711e+05
3.018381e+00   3.144636e+00	1   1.356241e+04  -1.219814e+04  -4.112707e+05
3.060415e+00   3.190210e+00	1   1.544996e+04  -1.079833e+04  -3.722461e+05
3.102403e+00   3.235785e+00	1   1.734241e+04  -7.903206e+03  -4.626844e+05
3.144347e+00   3.281359e+00	1   1.929446e+04  -3.388565e+03  -6.568008e+05
3.186246e+00   3.326933e+00	1   2.137324e+04   2.675705e+03  -8.793196e+05
3.228100e+00   3.372508e+00	1   2.365107e+04   9.966509e+03  -1.039305e+06
3.269909e+00   3.418082e+00	1   2.619597e+04   1.787585e+04  -1.074158e+06
3.311674e+00   3.463657e+00	1   2.906115e+04   2.552930e+04  -9.817796e+05
3.353395e+00   3.509231e+00	1   3.227517e+04   3.187214e+04  -8.240961e+05
3.395072e+00   3.554806e+00	1   3.583439e+04   3.582713e+04  -7.005938e+05
3.436705e+00   3.600380e+00	1   3.969989e+04   3.650816e+04  -7.066631e+05
3.478294e+00   3.645954e+00	1   4.379995e+04   3.345173e+04  -8.972046e+05
3.519839e+00   3.691529e+00	1   4.803890e+04   2.681107e+04  -1.267279e+06
3.561341e+00   3.737103e+00	1   5.231169e+04   1.745216e+04  -1.747802e+06
3.602800e+00   3.782678e+00	1   5.652242e+04   6.902529e+03  -2.211393e+06
1.561323e+00   1.595105e+00	2   0.000000e+00   0.000000e+00   0.000000e+00
1.604982e+00   1.640680e+00	2   0.000000e+00   0.000000e+00   0.000000e+00
1.648590e+00   1.686254e+00	2   0.000000e+00   0.000000e+00   0.000000e+00
1.692148e+00   1.731828e+00	2   0.000000e+00   0.000000e+00   0.000000e+00
1.735656e+00   1.777403e+00	2   0.000000e+00   0.000000e+00   0.000000e+00
1.779114e+00   1.822977e+00	2   0.000000e+00   0.000000e+00   0.000000e+00
1.822521e+00   1.868552e+00	2   0.000000e+00   0.000000e+00   0.000000e+00
1.865880e+00   1.914126e+00	2   0.000000e+00   0.000000e+00   0.000000e+00
1.909188e+00   1.959701e+00	2   0.000000e+00   0.000000e+00   0.000000e+00
1.952448e+00   2.005275e+00	2   0.000000e+00   0.000000e+00   0.000000e+00
1.995658e+00   2.050849e+00	2   0.000000e+00   0.000000e+00   0.000000e+00
2.038819e+00   2.096424e+00	2   0.000000e+00   0.000000e+00   0.000000e+00
2.081932e+00   2.141998e+00	2   0.000000e+00   0.000000e+00   0.000000e+00
2.124996e+00   2.187573e+00	2   0.000000e+00   0.000000e+00   0.000000e+00
2.168011e+00   2.233147e+00	2   0.000000e+00   0.000000e+00   0.000000e+00
2.210978e+00   2.278722e+00	2   0.000000e+00   0.000000e+00   0.000000e+00
2.253897e+00   2.324296e+00	2   0.000000e+00   0.000000e+00   0.000000e+00
2.296768e+00   2.369870e+00	2   0.000000e+00   0.000000e+00   0.000000e+00
2.339591e+00   2.415445e+00	2   0.000000e+00   0.000000e+00   0.000000e+00
2.382366e+00   2.461019e+00	2   0.000000e+00   0.000000e+00   0.000000e+00
2.425094e+00   2.506594e+00	2   0.000000e+00   0.000000e+00   0.000000e+00
2.467775e+00   2.552168e+00	2   0.000000e+00   0.000000e+00   0.000000e+00
2.510408e+00   2.597743e+00	2   0.000000e+00   0.000000e+00   0.000000e+00
2.552994e+00   2.643317e+00	2   0.000000e+00   0.000000e+00   0.000000e+00
2.595533e+00   2.688891e+00	2   0.000000e+00   0.000000e+00   0.000000e+00
2.638026e+00   2.734466e+00	2   0.000000e+00   0.000000e+00   0.000000e+00
2.680472e+00   2.780040e+00	2   0.000000e+00   0.000000e+00   0.000000e+00
2.722872e+00   2.825615e+00	2   0.000000e+00   0.000000e+00   0.000000e+00
2.765225e+00   2.871189e+00	2   0.000000e+00   0.000000e+00   0.000000e+00
2.807532e+00   2.916764e+00	2   0.000000e+00   0.000000e+00   0.000000e+00
2.849793e+00   2.962338e+00	2   0.000000e+00   0.000000e+00   0.000000e+00
2.892009e+00   3.007912e+00	2   0.000000e+00   0.000000e+00   0.000000e+00
2.934178e+00   3.053487e+00	2   0.000000e+00   0.000000e+00   0.000000e+00
2.976303e+00   3.099061e+00	2   0.000000e+00   0.000000e+00   0.000000e+00
3.018381e+00   3.144636e+00	2   0.000000e+00   0.000000e+00   0.000000e+00
3.060415e+00   3.190210e+00	2   0.000000e+00   0.000000e+00   0.000000e+00
3.102403e+00   3.235785e+00	2   0.000000e+00   0.000000e+00   0.000000e+00
3.144347e+00   3.281359e+00	2   0.000000e+00   0.000000e+00   0.000000e+00
3.186246e+00   3.326933e+00	2   0.000000e+00   0.000000e+00   0.000000e+00
3.228100e+00   3.372508e+00	2   0.000000e+00   0.000000e+00   0.000000e+00
3.269909e+00   3.418082e+00	2   0.000000e+00   0.000000e+00   0.000000e+00
3.311674e+00   3.463657e+00	2   0.000000e+00   0.000000e+00   0.000000e+00
3.353395e+00   3.509231e+00	2   0.000000e+00   0.000000e+00   0.000000e+00
3.395072e+00   3.554806e+00	2   0.000000e+00   0.000000e+00   0.000000e+00
3.436705e+00   3.600380e+00	2   0.000000e+00   0.000000e+00   0.000000e+00
3.478294e+00   3.645954e+00	2   0.000000e+00   0.000000e+00   0.000000e+00
3.519839e+00   3.691529e+00	2   0.000000e+00   0.000000e+00   0.000000e+00
3.561341e+00   3.737103e+00	2   0.000000e+00   0.000000e+00   0.000000e+00
3.602800e+00   3.782678e+00	2   0.000000e+00   0.000000e+00   0.000000e+00
1.561323e+00   1.595105e+00	3   0.000000e+00   0.000000e+00   0.000000e+00
1.604982e+00   1.640680e+00	3   0.000000e+00   0.000000e+00   0.000000e+00
1.648590e+00   1.686254e+00	3   0.000000e+00   0.000000e+00   0.000000e+00
1.692148e+00   1.731828e+00	3   0.000000e+00   0.000000e+00   0.000000e+00
1.735656e+00   1.777403e+00	3   0.000000e+00   0.000000e+00   0.000000e+00
1.779114e+00   1.822977e+00	3   0.000000e+00   0.000000e+00   0.000000e+00
1.822521e+00   1.868552e+00	3   0.000000e+00   0.000000e+00   0.000000e+00
1.865880e+00   1.914126e+00	3   0.000000e+00   0.000000e+00   0.000000e+00
1.909188e+00   1.959701e+00	3   0.000000e+00   0.000000e+00   0.000000e+00
1.952448e+00   2.005275e+00	3   0.000000e+00   0.000000e+00   0.000000e+00
1.995658e+00   2.050849e+00	3   0.000000e+00   0.000000e+00   0.000000e+00
2.038819e+00   2.096424e+00	3   0.000000e+00   0.000000e+00   0.000000e+00
2.081932e+00   2.141998e+00	3   0.000000e+00   0.000000e+00   0.000000e+00
2.124996e+00   2.187573e+00	3   0.000000e+00   0.000000e+00   0.000000e+00
2.168011e+00   2.233147e+00	3   0.000000e+00   0.000000e+00   0.000000e+00
2.210978e+00   2.278722e+00	3   0.000000e+00   0.000000e+00   0.000000e+00
2.253897e+00   2.324296e+00	3   0.000000e+00   0.000000e+00   0.000000e+00
2.296768e+00   2.369870e+00	3   0.000000e+00   0.000000e+00   0.000000e+00
2.339591e+00   2.415445e+00	3   0.000000e+00   0.000000e+00   0.000000e+00
2.382366e+00   2.461019e+00	3   0.000000e+00   0.000000e+00   0.000000e+00
2.425094e+00   2.506594e+00	3   0.000000e+00   0.000000e+00   0.000000e+00
2.467775e+00   2.552168e+00	3   0.000000e+00   0.000000e+00   0.000000e+00
2.510408e+00   2.597743e+00	3   0.000000e+00   0.000000e+00   0.000000e+00
2.552994e+00   2.643317e+00	3   0.000000e+00   0.000000e+00   0.000000e+00
2.595533e+00   2.688891e+00	3   0.000000e+00   0.000000e+00   0.000000e+00
2.638026e+00   2.734466e+00	3   0.000000e+00   0.000000e+00   0.000000e+00
2.680472e+00   2.780040e+00	3   0.000000e+00   0.000000e+00   0.000000e+00
2.722872e+00   2.825615e+00	3   0.000000e+00   0.000000e+00   0.000000e+00
2.765225e+00   2.871189e+00	3   0.000000e+00   0.000000e+00   0.000000e+00
2.807532e+00   2.916764e+00	3   0.000000e+00   0.000000e+00   0.000000e+00
2.849793e+00   2.962338e+00	3   0.000000e+00   0.000000e+00   0.000000e+00
2.892009e+00   3.007912e+00	3   0.000000e+00   0.000000e+00   0.000000e+00
2.934178e+00   3.053487e+00	3   0.000000e+00   0.000000e+00   0.000000e+00
2.976303e+00   3.099061e+00	3   0.000000e+00   0.000000e+00   0.000000e+00
3.018381e+00   3.144636e+00	3   0.000000e+00   0.000000e+00   0.000000e+00
3.060415e+00   3.190210e+00	3   0.000000e+00   0.000000e+00   0.000000e+00
3.102403e+00   3.235785e+00	3   0.000000e+00   0.000000e+00   0.000000e+00
3.144347e+00   3.281359e+00	3   0.000000e+00   0.000000e+00   0.000000e+00
3.186246e+00   3.326933e+00	3   0.000000e+00   0.000000e+00   0.000000e+00
3.228100e+00   3.372508e+00	3   0.000000e+00   0.000000e+00   0.000000e+00
3.269909e+00   3.418082e+00	3   0.000000e+00   0.000000e+00   0.000000e+00
3.311674e+00   3.463657e+00	3   0.000000e+00   0.000000e+00   0.000000e+00
3.353395e+00   3.509231e+00	3   0.000000e+00   0.000000e+00   0.000000e+00
3.395072e+00   3.554806e+00	3   0.000000e+00   0.000000e+00   0.000000e+00
3.436705e+00   3.600380e+00	3   0.000000e+00   0.000000e+00   0.000000e+00
3.478294e+00   3.645954e+00	3   0.000000e+00   0.000000e+00   0.000000e+00
3.519839e+00   3.691529e+00	3   0.000000e+00   0.000000e+00   0.000000e+00
3.561341e+00   3.737103e+00	3   0.000000e+00   0.000000e+00   0.000000e+00
3.602800e+00   3.782678e+00	3   0.000000e+00   0.000000e+00   0.000000e+00
1.561323e+00   1.595105e+00	4   0.000000e+00   0.000000e+00   0.000000e+00
1.604982e+00   1.640680e+00	4   0.000000e+00   0.000000e+00   0.000000e+00
1.648590e+00   1.686254e+00	4   0.000000e+00   0.000000e+00   0.000000e+00
1.692148e+00   1.731828e+00	4   0.000000e+00   0.000000e+00   0.000000e+00
1.735656e+00   1.777403e+00	4   0.000000e+00   0.000000e+00   0.000000e+00
1.779114e+00   1.822977e+00	4   0.000000e+00   0.000000e+00   0.000000e+00
1.822521e+00   1.868552e+00	4   0.000000e+00   0.000000e+00   0.000000e+00
1.865880e+00   1.914126e+00	4   0.000000e+00   0.000000e+00   0.000000e+00
1.909188e+00   1.959701e+00	4   0.000000e+00   0.000000e+00   0.000000e+00
1.952448e+00   2.005275e+00	4   0.000000e+00   0.000000e+00   0.000000e+00
1.995658e+00   2.050849e+00	4   0.000000e+00   0.000000e+00   0.000000e+00
2.038819e+00   2.096424e+00	4   0.000000e+00   0.000000e+00   0.000000e+00
2.081932e+00   2.141998e+00	4   0.000000e+00   0.000000e+00   0.000000e+00
2.124996e+00   2.187573e+00	4   0.000000e+00   0.000000e+00   0.000000e+00
2.168011e+00   2.233147e+00	4   0.000000e+00   0.000000e+00   0.000000e+00
2.210978e+00   2.278722e+00	4   0.000000e+00   0.000000e+00   0.000000e+00
2.253897e+00   2.324296e+00	4   0.000000e+00   0.000000e+00   0.000000e+00
2.296768e+00   2.369870e+00	4   0.000000e+00   0.000000e+00   0.000000e+00
2.339591e+00   2.415445e+00	4   0.000000e+00   0.000000e+00   0.000000e+00
2.382366e+00   2.461019e+00	4   0.000000e+00   0.000000e+00   0.000000e+00
2.425094e+00   2.506594e+00	4   0.000000e+00   0.000000e+00   0.000000e+00
2.467775e+00   2.552168e+00	4   0.000000e+00   0.000000e+00   0.000000e+00
2.510408e+00   2.597743e+00	4   0.000000e+00   0.000000e+00   0.000000e+00
2.552994e+00   2.643317e+00	4   0.000000e+00   0.000000e+00   0.000000e+00
2.595533e+00   2.688891e+00	4   0.000000e+00   0.000000e+00   0.000000e+00
2.638026e+00   2.734466e+00	4   0.000000e+00   0.000000e+00   0.000000e+00
2.680472e+00   2.780040e+00	4   0.000000e+00   0.000000e+00   0.000000e+00
2.722872e+00   2.825615e+00	4   0.000000e+00   0.000000e+00   0.000000e+00
2.765225e+00   2.871189e+00	4   0.000000e+00   0.000000e+00   0.000000e+00
2.807532e+00   2.916764e+00	4   0.000000e+00   0.000000e+00   0.000000e+00
2.849793e+00   2.962338e+00	4   0.000000e+00   0.000000e+00   0.000000e+00
2.892009e+00   3.007912e+00	4   0.000000e+00   0.000000e+00   0.000000e+00
2.934178e+00   3.053487e+00	4   0.000000e+00   0.000000e+00   0.000000e+00
2.976303e+00   3.099061e+00	4   0.000000e+00   0.000000e+00   0.000000e+00
3.018381e+00   3.144636e+00	4   0.000000e+00   0.000000e+00   0.000000e+00
3.060415e+00   3.190210e+00	4   0.000000e+00   0.000000e+00   0.000000e+00
3.102403e+00   3.235785e+00	4   0.000000e+00   0.000000e+00   0.000000e+00
3.144347e+00   3.281359e+00	4   0.000000e+00   0.000000e+00   0.000000e+00
3.186246e+00   3.326933e+00	4   0.000000e+00   0.000000e+00   0.000000e+00
3.228100e+00   3.372508e+00	4   0.000000e+00   0.000000e+00   0.000000e+00
3.269909e+00   3.418082e+00	4   0.000000e+00   0.000000e+00   0.000000e+00
3.311674e+00   3.463657e+00	4   0.000000e+00   0.000000e+00   0.000000e+00
3.353395e+00   3.509231e+00	4   0.000000e+00   0.000000e+00   0.000000e+00
3.395072e+00   3.554806e+00	4   0.000000e+00   0.000000e+00   0.000000e+00
3.436705e+00   3.600380e+00	4   0.000000e+00   0.000000e+00   0.000000e+00
3.478294e+00   3.645954e+00	4   0.000000e+00   0.000000e+00   0.000000e+00
3.519839e+00   3.691529e+00	4   0.000000e+00   0.000000e+00   0.000000e+00
3.561341e+00   3.737103e+00	4   0.000000e+00   0.000000e+00   0.000000e+00
3.602800e+00   3.782678e+00	4   0.000000e+00   0.000000e+00   0.000000e+00
1.561323e+00   1.595105e+00	5   0.000000e+00   0.000000e+00   0.000000e+00
1.604982e+00   1.640680e+00	5   0.000000e+00   0.000000e+00   0.000000e+00
1.648590e+00   1.686254e+00	5   0.000000e+00   0.000000e+00   0.000000e+00
1.692148e+00   1.731828e+00	5   0.000000e+00   0.000000e+00   0.000000e+00
1.735656e+00   1.777403e+00	5   0.000000e+00   0.000000e+00   0.000000e+00
1.779114e+00   1.822977e+00	5   0.000000e+00   0.000000e+00   0.000000e+00
1.822521e+00   1.868552e+00	5   0.000000e+00   0.000000e+00   0.000000e+00
1.865880e+00   1.914126e+00	5   0.000000e+00   0.000000e+00   0.000000e+00
1.909188e+00   1.959701e+00	5   0.000000e+00   0.000000e+00   0.000000e+00
1.952448e+00   2.005275e+00	5   0.000000e+00   0.000000e+00   0.000000e+00
1.995658e+00   2.050849e+00	5   0.000000e+00   0.000000e+00   0.000000e+00
2.038819e+00   2.096424e+00	5   0.000000e+00   0.000000e+00   0.000000e+00
2.081932e+00   2.141998e+00	5   0.000000e+00   0.000000e+00   0.000000e+00
2.124996e+00   2.187573e+00	5   0.000000e+00   0.000000e+00   0.000000e+00
2.168011e+00   2.233147e+00	5   0.000000e+00   0.000000e+00   0.000000e+00
2.210978e+00   2.278722e+00	5   0.000000e+00   0.000000e+00   0.000000e+00
2.253897e+00   2.324296e+00	5   0.000000e+00   0.000000e+00   0.000000e+00
2.296768e+00   2.369870e+00	5   0.000000e+00   0.000000e+00   0.000000e+00
2.339591e+00   2.415445e+00	5   0.000000e+00   0.000000e+00   0.000000e+00
2.382366e+00   2.461019e+00	5   0.000000e+00   0.000000e+00   0.000000e+00
2.425094e+00   2.506594e+00	5   0.000000e+00   0.000000e+00   0.000000e+00
2.467775e+00   2.552168e+00	5   0.000000e+00   0.000000e+00   0.000000e+00
2.510408e+00   2.597743e+00	5   0.000000e+00   0.000000e+00   0.000000e+00
2.552994e+00   2.643317e+00	5   0.000000e+00   0.000000e+00   0.000000e+00
2.595533e+00   2.688891e+00	5   0.000000e+00   0.000000e+00   0.000000e+00
2.638026e+00   2.734466e+00	5   0.000000e+00   0.000000e+00   0.000000e+00
2.680472e+00   2.780040e+00	5   0.000000e+00   0.000000e+00   0.000000e+00
2.722872e+00   2.825615e+00	5   0.000000e+00   0.000000e+00   0.000000e+00
2.765225e+00   2.871189e+00	5   0.000000e+00   0.000000e+00   0.000000e+00
2.807532e+00   2.916764e+00	5   0.000000e+00   0.000000e+00   0.000000e+00
2.849793e+00   2.962338e+00	5   0.000000e+00   0.000000e+00   0.000000e+00
2.892009e+00   3.007912e+00	5   0.000000e+00   0.000000e+00   0.000000e+00
2.934178e+00   3.053487e+00	5   0.000000e+00   0.000000e+00   0.000000e+00
2.976303e+00   3.099061e+00	5   0.000000e+00   0.000000e+00   0.000000e+00
3.018381e+00   3.144636e+00	5   0.000000e+00   0.000000e+00   0.000000e+00
3.060415e+00   3.190210e+00	5   0.000000e+00   0.000000e+00   0.000000e+00
3.102403e+00   3.235785e+00	5   0.000000e+00   0.000000e+00   0.000000e+00
3.144347e+00   3.281359e+00	5   0.000000e+00   0.000000e+00   0.000000e+00
3.186246e+00   3.326933e+00	5   0.000000e+00   0.000000e+00   0.000000e+00
3.228100e+00   3.372508e+00	5   0.000000e+00   0.000000e+00   0.000000e+00
3.269909e+00   3.418082e+00	5   0.000000e+00   0.000000e+00   0.000000e+00
3.311674e+00   3.463657e+00	5   0.000000e+00   0.000000e+00   0.000000e+00
3.353395e+00   3.509231e+00	5   0.000000e+00   0.000000e+00   0.000000e+00
3.395072e+00   3.554806e+00	5   0.000000e+00   0.000000e+00   0.000000e+00
3.436705e+00   3.600380e+00	5   0.000000e+00   0.000000e+00   0.000000e+00
3.478294e+00   3.645954e+00	5   0.000000e+00   0.000000e+00   0.000000e+00
3.519839e+00   3.691529e+00	5   0.000000e+00   0.000000e+00   0.000000e+00
3.561341e+00   3.737103e+00	5   0.000000e+00   0.000000e+00   0.000000e+00
3.602800e+00   3.782678e+00	5   0.000000e+00   0.000000e+00   0.000000e+00
1.561323e+00   1.595105e+00	6   0.000000e+00   0.000000e+00   0.000000e+00
1.604982e+00   1.640680e+00	6   0.000000e+00   0.000000e+00   0.000000e+00
1.648590e+00   1.686254e+00	6   0.000000e+00   0.000000e+00   0.000000e+00
1.692148e+00   1.731828e+00	6   0.000000e+00   0.000000e+00   0.000000e+00
1.735656e+00   1.777403e+00	6   0.000000e+00   0.000000e+00   0.000000e+00
1.779114e+00   1.822977e+00	6   0.000000e+00   0.000000e+00   0.000000e+00
1.822521e+00   1.868552e+00	6   0.000000e+00   0.000000e+00   0.000000e+00
1.865880e+00   1.914126e+00	6   0.000000e+00   0.000000e+00   0.000000e+00
1.909188e+00   1.959701e+00	6   0.000000e+00   0.000000e+00   0.000000e+00
1.952448e+00   2.005275e+00	6   0.000000e+00   0.000000e+00   0.000000e+00
1.995658e+00   2.050849e+00	6   0.000000e+00   0.000000e+00   0.000000e+00
2.038819e+00   2.096424e+00	6   0.000000e+00   0.000000e+00   0.000000e+00
2.081932e+00   2.141998e+00	6   0.000000e+00   0.000000e+00   0.000000e+00
2.124996e+00   2.187573e+00	6   0.000000e+00   0.000000e+00   0.000000e+00
2.168011e+00   2.233147e+00	6   0.000000e+00   0.000000e+00   0.000000e+00
2.210978e+00   2.278722e+00	6   0.000000e+00   0.000000e+00   0.000000e+00
2.253897e+00   2.324296e+00	6   0.000000e+00   0.000000e+00   0.000000e+00
2.296768e+00   2.369870e+00	6   0.000000e+00   0.000000e+00   0.000000e+00
2.339591e+00   2.415445e+00	6   0.000000e+00   0.000000e+00   0.000000e+00
2.382366e+00   2.461019e+00	6   0.000000e+00   0.000000e+00   0.000000e+00
2.425094e+00   2.506594e+00	6   0.000000e+00   0.000000e+00   0.000000e+00
2.467775e+00   2.552168e+00	6   0.000000e+00   0.000000e+00   0.000000e+00
2.510408e+00   2.597743e+00	6   0.000000e+00   0.000000e+00   0.000000e+00
2.552994e+00   2.643317e+00	6   0.000000e+00   0.000000e+00   0.000000e+00
2.595533e+00   2.688891e+00	6   0.000000e+00   0.000000e+00   0.000000e+00
2.638026e+00   2.734466e+00	6   0.000000e+00   0.000000e+00   0.000000e+00
2.680472e+00   2.780040e+00	6   0.000000e+00   0.000000e+00   0.000000e+00
2.722872e+00   2.825615e+00	6   0.000000e+00   0.000000e+00   0.000000e+00
2.765225e+00   2.871189e+00	6   0.000000e+00   0.000000e+00   0.000000e+00
2.807532e+00   2.916764e+00	6   0.000000e+00   0.000000e+00   0.000000e+00
2.849793e+00   2.962338e+00	6   0.000000e+00   0.000000e+00   0.000000e+00
2.892009e+00   3.007912e+00	6   0.000000e+00   0.000000e+00   0.000000e+00
2.934178e+00   3.053487e+00	6   0.000000e+00   0.000000e+00   0.000000e+00
2.976303e+00   3.099061e+00	6   0.000000e+00   0.000000e+00   0.000000e+00
3.018381e+00   3.144636e+00	6   0.000000e+00   0.000000e+00   0.000000e+00
3.060415e+00   3.190210e+00	6   0.000000e+00   0.000000e+00   0.000000e+00
3.102403e+00   3.235785e+00	6   0.000000e+00   0.000000e+00   0.000000e+00
3.144347e+00   3.281359e+00	6   0.000000e+00   0.000000e+00   0.000000e+00
3.186246e+00   3.326933e+00	6   0.000000e+00   0.000000e+00   0.000000e+00
3.228100e+00   3.372508e+00	6   0.000000e+00   0.000000e+00   0.000000e+00
3.269909e+00   3.418082e+00	6   0.000000e+00   0.000000e+00   0.000000e+00
3.311674e+00   3.463657e+00	6   0.000000e+00   0.000000e+00   0.000000e+00
3.353395e+00   3.509231e+00	6   0.000000e+00   0.000000e+00   0.000000e+00
3.395072e+00   3.554806e+00	6   0.000000e+00   0.000000e+00   0.000000e+00
3.436705e+00   3.600380e+00	6   0.000000e+00   0.000000e+00   0.000000e+00
3.478294e+00   3.645954e+00	6   0.000000e+00   0.000000e+00   0.000000e+00
3.519839e+00   3.691529e+00	6   0.000000e+00   0.000000e+00   0.000000e+00
3.561341e+00   3.737103e+00	6   0.000000e+00   0.000000e+00   0.000000e+00
3.602800e+00   3.782678e+00	6   0.000000e+00   0.000000e+00   0.000000e+00
