Response amplitude operators ----- File created by OW3D-Seakeeping ----- Thu Jun  1 15:17:07 2023
	Number of frequencies:18
	Froude number:3.811629e-01
	Beta:1.800000e+02
2.087089e+00   2.470043e+00	1	  -1.982367e-01   3.162698e-01   3.732618e-01
2.676240e+00   3.293391e+00	1	   1.322480e-01   4.797552e-01   4.976491e-01
3.222877e+00   4.116739e+00	1	   4.639360e-02   2.680363e-01   2.720217e-01
3.737824e+00   4.940086e+00	1	   1.698210e-02   1.737163e-01   1.745443e-01
4.226362e+00   5.763434e+00	1	   4.997737e-03   1.120821e-01   1.121935e-01
4.692198e+00   6.586782e+00	1	   6.715157e-04   7.051446e-02   7.051765e-02
5.138233e+00   7.410130e+00	1	  -1.862005e-04   4.311218e-02   4.311259e-02
5.566794e+00   8.233477e+00	1	   3.051170e-04   2.570588e-02   2.570769e-02
5.979788e+00   9.056825e+00	1	   1.021196e-03   1.511980e-02   1.515424e-02
6.378797e+00   9.880173e+00	1	   1.415692e-03   8.960053e-03   9.071203e-03
6.765153e+00   1.070352e+01	1	   1.318551e-03   5.479935e-03   5.636334e-03
7.139987e+00   1.152687e+01	1	   8.065248e-04   3.469480e-03   3.561990e-03
7.504273e+00   1.235022e+01	1	   9.692365e-05   2.161401e-03   2.163573e-03
7.858854e+00   1.317356e+01	1	  -5.485324e-04   1.144990e-03   1.269602e-03
8.204467e+00   1.399691e+01	1	  -9.078972e-04   2.791312e-04   9.498376e-04
8.541760e+00   1.482026e+01	1	  -8.631555e-04  -4.006488e-04   9.516075e-04
8.871306e+00   1.564361e+01	1	  -4.348977e-04  -7.797894e-04   8.928648e-04
9.193616e+00   1.646695e+01	1	   2.198169e-04  -7.588416e-04   7.900380e-04
2.087089e+00   2.470043e+00	3	   2.182253e-01   1.263866e-01   2.521822e-01
2.676240e+00   3.293391e+00	3	   4.498734e-01  -6.180890e-02   4.540995e-01
3.222877e+00   4.116739e+00	3	   2.514068e-01  -4.949901e-02   2.562334e-01
3.737824e+00   4.940086e+00	3	   1.679237e-01  -2.697667e-02   1.700768e-01
4.226362e+00   5.763434e+00	3	   1.119365e-01  -1.236690e-02   1.126176e-01
4.692198e+00   6.586782e+00	3	   7.218552e-02  -3.728214e-03   7.228173e-02
5.138233e+00   7.410130e+00	3	   4.427934e-02   5.700227e-04   4.428301e-02
5.566794e+00   8.233477e+00	3	   2.537948e-02   1.869894e-03   2.544828e-02
5.979788e+00   9.056825e+00	3	   1.331933e-02   1.360377e-03   1.338863e-02
6.378797e+00   9.880173e+00	3	   6.333576e-03   7.106195e-05   6.333975e-03
6.765153e+00   1.070352e+01	3	   2.920630e-03  -1.188832e-03   3.153316e-03
7.139987e+00   1.152687e+01	3	   1.778436e-03  -1.890621e-03   2.595628e-03
7.504273e+00   1.235022e+01	3	   1.800090e-03  -1.816030e-03   2.557008e-03
7.858854e+00   1.317356e+01	3	   2.110261e-03  -1.042368e-03   2.353663e-03
8.204467e+00   1.399691e+01	3	   2.116380e-03   1.206372e-04   2.119815e-03
8.541760e+00   1.482026e+01	3	   1.546811e-03   1.236467e-03   1.980272e-03
8.871306e+00   1.564361e+01	3	   4.513407e-04   1.874778e-03   1.928342e-03
9.193616e+00   1.646695e+01	3	  -8.531356e-04   1.747716e-03   1.944827e-03
