Hydrodynamic coefficients ----- File created by OW3D-Seakeeping ----- Thu Jun  1 15:17:07 2023
	Number of frequencies:18
	Froude number:3.811629e-01
2.087089e+00   2.470043e+00	1	1	   1.469275e+03   1.994834e+03
2.676240e+00   3.293391e+00	1	1	   7.827546e+02  -3.275658e+02
3.222877e+00   4.116739e+00	1	1	   8.881533e+02  -9.739992e+01
3.737824e+00   4.940086e+00	1	1	   8.478481e+02   2.828932e+01
4.226362e+00   5.763434e+00	1	1	   8.085250e+02   8.536742e+01
4.692198e+00   6.586782e+00	1	1	   7.793147e+02   1.061412e+02
5.138233e+00   7.410130e+00	1	1	   7.584994e+02   1.063847e+02
5.566794e+00   8.233477e+00	1	1	   7.437885e+02   9.463496e+01
5.979788e+00   9.056825e+00	1	1	   7.334452e+02   7.608889e+01
6.378797e+00   9.880173e+00	1	1	   7.262441e+02   5.426663e+01
6.765153e+00   1.070352e+01	1	1	   7.213136e+02   3.179413e+01
7.139987e+00   1.152687e+01	1	1	   7.180145e+02   1.080070e+01
7.504273e+00   1.235022e+01	1	1	   7.158621e+02  -6.889869e+00
7.858854e+00   1.317356e+01	1	1	   7.144799e+02  -1.971696e+01
8.204467e+00   1.399691e+01	1	1	   7.135706e+02  -2.646657e+01
8.541760e+00   1.482026e+01	1	1	   7.128987e+02  -2.645041e+01
8.871306e+00   1.564361e+01	1	1	   7.122761e+02  -1.972599e+01
9.193616e+00   1.646695e+01	1	1	   7.115533e+02  -7.280062e+00
2.087089e+00   2.470043e+00	3	1	   3.575802e+02   5.280526e+02
2.676240e+00   3.293391e+00	3	1	  -1.446312e+02   8.128561e+02
3.222877e+00   4.116739e+00	3	1	  -6.673331e+01   3.492360e+02
3.737824e+00   4.940086e+00	3	1	  -3.640834e+01   2.368972e+02
4.226362e+00   5.763434e+00	3	1	  -2.203239e+01   1.923829e+02
4.692198e+00   6.586782e+00	3	1	  -1.417602e+01   1.710733e+02
5.138233e+00   7.410130e+00	3	1	  -9.440575e+00   1.599663e+02
5.566794e+00   8.233477e+00	3	1	  -6.384674e+00   1.541088e+02
5.979788e+00   9.056825e+00	3	1	  -4.319512e+00   1.512995e+02
6.378797e+00   9.880173e+00	3	1	  -2.882669e+00   1.504667e+02
6.765153e+00   1.070352e+01	3	1	  -1.866456e+00   1.510491e+02
7.139987e+00   1.152687e+01	3	1	  -1.142606e+00   1.527085e+02
7.504273e+00   1.235022e+01	3	1	  -6.277600e-01   1.551784e+02
7.858854e+00   1.317356e+01	3	1	  -2.671694e-01   1.581896e+02
8.204467e+00   1.399691e+01	3	1	  -2.612152e-02   1.614539e+02
8.541760e+00   1.482026e+01	3	1	   1.162727e-01   1.646898e+02
8.871306e+00   1.564361e+01	3	1	   1.733201e-01   1.676683e+02
9.193616e+00   1.646695e+01	3	1	   1.572907e-01   1.702445e+02
2.087089e+00   2.470043e+00	1	3	  -3.557575e+02  -5.130998e+02
2.676240e+00   3.293391e+00	1	3	   1.383524e+02  -8.123635e+02
3.222877e+00   4.116739e+00	1	3	   6.431285e+01  -3.530229e+02
3.737824e+00   4.940086e+00	1	3	   3.513322e+01  -2.409570e+02
4.226362e+00   5.763434e+00	1	3	   2.126600e+01  -1.963009e+02
4.692198e+00   6.586782e+00	1	3	   1.368157e+01  -1.747932e+02
5.138233e+00   7.410130e+00	1	3	   9.108801e+00  -1.634907e+02
5.566794e+00   8.233477e+00	1	3	   6.157800e+00  -1.574481e+02
5.979788e+00   9.056825e+00	1	3	   4.163885e+00  -1.544619e+02
6.378797e+00   9.880173e+00	1	3	   2.777188e+00  -1.534569e+02
6.765153e+00   1.070352e+01	1	3	   1.797067e+00  -1.538688e+02
7.139987e+00   1.152687e+01	1	3	   1.099457e+00  -1.553575e+02
7.504273e+00   1.235022e+01	1	3	   6.036157e-01  -1.576556e+02
7.858854e+00   1.317356e+01	1	3	   2.564991e-01  -1.604941e+02
8.204467e+00   1.399691e+01	1	3	   2.454765e-02  -1.635860e+02
8.541760e+00   1.482026e+01	1	3	  -1.123057e-01  -1.666526e+02
8.871306e+00   1.564361e+01	1	3	  -1.667409e-01  -1.694689e+02
9.193616e+00   1.646695e+01	1	3	  -1.505058e-01  -1.718956e+02
2.087089e+00   2.470043e+00	3	3	   1.524750e+03   2.029115e+03
2.676240e+00   3.293391e+00	3	3	   8.167026e+02  -3.444681e+02
3.222877e+00   4.116739e+00	3	3	   9.159283e+02  -1.024583e+02
3.737824e+00   4.940086e+00	3	3	   8.704776e+02   2.760322e+01
4.226362e+00   5.763434e+00	3	3	   8.278031e+02   8.664065e+01
4.692198e+00   6.586782e+00	3	3	   7.963604e+02   1.082912e+02
5.138233e+00   7.410130e+00	3	3	   7.740035e+02   1.088405e+02
5.566794e+00   8.233477e+00	3	3	   7.581937e+02   9.706743e+01
5.979788e+00   9.056825e+00	3	3	   7.470471e+02   7.830011e+01
6.378797e+00   9.880173e+00	3	3	   7.392467e+02   5.613881e+01
6.765153e+00   1.070352e+01	3	3	   7.338619e+02   3.326371e+01
7.139987e+00   1.152687e+01	3	3	   7.302138e+02   1.184564e+01
7.504273e+00   1.235022e+01	3	3	   7.277899e+02  -6.256001e+00
7.858854e+00   1.317356e+01	3	3	   7.261938e+02  -1.944801e+01
8.204467e+00   1.399691e+01	3	3	   7.251139e+02  -2.648721e+01
8.541760e+00   1.482026e+01	3	3	   7.243036e+02  -2.666260e+01
8.871306e+00   1.564361e+01	3	3	   7.235669e+02  -2.001944e+01
9.193616e+00   1.646695e+01	3	3	   7.227474e+02  -7.546247e+00
