Grid hydrostatics  ----- File created by OW3D-Seakeeping ----- Thu Jun  1 15:24:27 2023

 Submerged volume (x)   1.877559e+03
 Submerged volume (y)   1.890650e+03
 Submerged volume (z)   1.869432e+03
 Submerged volume       1.879214e+03
 Mass                   1.879214e+06
 Wetted surface         6.377152e+02
 Center of buoyancy x   1.553888e-03
 Center of buoyancy y   0.000000e+00
 Center of buoyancy z  -4.189292e+00

	1	1	   0.000000e+00
	1	2	   0.000000e+00
	1	3	   0.000000e+00
	1	4	   0.000000e+00
	1	5	  -0.000000e+00
	1	6	   0.000000e+00
	1	7	   0.000000e+00
	1	8	   0.000000e+00
	2	1	   0.000000e+00
	2	2	   0.000000e+00
	2	3	   0.000000e+00
	2	4	   0.000000e+00
	2	5	  -0.000000e+00
	2	6	   0.000000e+00
	2	7	   0.000000e+00
	2	8	   0.000000e+00
	3	1	   0.000000e+00
	3	2	   0.000000e+00
	3	3	   2.342362e+06
	3	4	   0.000000e+00
	3	5	  -1.903081e+04
	3	6	   0.000000e+00
	3	7	  -1.691715e+03
	3	8	   5.063153e+02
	4	1	   0.000000e+00
	4	2	   0.000000e+00
	4	3	   0.000000e+00
	4	4	   7.710492e+05
	4	5	  -0.000000e+00
	4	6	  -2.864606e+04
	4	7	   0.000000e+00
	4	8	   0.000000e+00
	5	1	  -0.000000e+00
	5	2	  -0.000000e+00
	5	3	  -1.903081e+04
	5	4	  -0.000000e+00
	5	5	  -4.273136e+07
	5	6	  -0.000000e+00
	5	7	  -8.235681e+03
	5	8	   1.097217e+05
	6	1	   0.000000e+00
	6	2	   0.000000e+00
	6	3	   0.000000e+00
	6	4	   0.000000e+00
	6	5	  -0.000000e+00
	6	6	   0.000000e+00
	6	7	   0.000000e+00
	6	8	   0.000000e+00
	7	1	  -2.582232e+03
	7	2	   0.000000e+00
	7	3	  -1.691715e+03
	7	4	   0.000000e+00
	7	5	   1.132782e+04
	7	6	   0.000000e+00
	7	7	   5.699370e+05
	7	8	  -5.833620e+02
	8	1	  -5.400876e+06
	8	2	   0.000000e+00
	8	3	   5.063153e+02
	8	4	   0.000000e+00
	8	5	   2.269142e+07
	8	6	   0.000000e+00
	8	7	  -5.833620e+02
	8	8	   5.688095e+05
