Response amplitude operators ----- File created by OW3D-Seakeeping ----- Thu Jun  1 15:17:07 2023
	Number of frequencies:24
	Froude number:1.514456e-02
	Beta:1.300000e+02
1.615043e+00   1.640680e+00	1	  -6.085117e-01   1.717898e-01   6.322960e-01
1.703313e+00   1.731828e+00	1	  -4.541162e-01   1.810709e-01   4.888846e-01
1.791435e+00   1.822977e+00	1	  -3.081101e-01   1.803212e-01   3.569980e-01
1.879410e+00   1.914126e+00	1	  -1.767263e-01   1.713573e-01   2.461616e-01
1.967238e+00   2.005275e+00	1	  -6.506020e-02   1.563499e-01   1.693461e-01
2.054921e+00   2.096424e+00	1	   2.344282e-02   1.375714e-01   1.395545e-01
2.142458e+00   2.187573e+00	1	   8.738809e-02   1.171061e-01   1.461182e-01
2.229852e+00   2.278722e+00	1	   1.276292e-01   9.656994e-02   1.600467e-01
2.317101e+00   2.369870e+00	1	   1.471776e-01   7.689887e-02   1.660563e-01
2.404208e+00   2.461019e+00	1	   1.507754e-01   5.826802e-02   1.616428e-01
2.491173e+00   2.552168e+00	1	   1.441385e-01   4.018585e-02   1.496356e-01
2.577996e+00   2.643317e+00	1	   1.329598e-01   2.177218e-02   1.347306e-01
2.664678e+00   2.734466e+00	1	   1.218428e-01   2.174835e-03   1.218622e-01
2.751220e+00   2.825615e+00	1	   1.134041e-01  -1.897896e-02   1.149812e-01
2.837623e+00   2.916764e+00	1	   1.078006e-01  -4.124226e-02   1.154205e-01
2.923887e+00   3.007912e+00	1	   1.028815e-01  -6.326623e-02   1.207776e-01
3.010013e+00   3.099061e+00	1	   9.502066e-02  -8.306393e-02   1.262083e-01
3.096001e+00   3.190210e+00	1	   8.048020e-02  -9.858962e-02   1.272673e-01
3.181853e+00   3.281359e+00	1	   5.693199e-02  -1.084579e-01   1.224923e-01
3.267568e+00   3.372508e+00	1	   2.462257e-02  -1.125168e-01   1.151794e-01
3.353148e+00   3.463657e+00	1	  -1.331177e-02  -1.119861e-01   1.127745e-01
3.438593e+00   3.554806e+00	1	  -5.163103e-02  -1.090236e-01   1.206313e-01
3.523904e+00   3.645954e+00	1	  -8.470332e-02  -1.058550e-01   1.355726e-01
3.609082e+00   3.737103e+00	1	  -1.084987e-01  -1.038837e-01   1.502125e-01
1.615043e+00   1.640680e+00	2	   5.488287e-01  -1.443345e-01   5.674904e-01
1.703313e+00   1.731828e+00	2	   4.109013e-01  -8.962237e-02   4.205616e-01
1.791435e+00   1.822977e+00	2	   2.840219e-01  -3.212422e-02   2.858329e-01
1.879410e+00   1.914126e+00	2	   1.736950e-01   2.414241e-02   1.753647e-01
1.967238e+00   2.005275e+00	2	   8.413559e-02   7.507287e-02   1.127596e-01
2.054921e+00   2.096424e+00	2	   1.780341e-02   1.169472e-01   1.182946e-01
2.142458e+00   2.187573e+00	2	  -2.492240e-02   1.469307e-01   1.490294e-01
2.229852e+00   2.278722e+00	2	  -4.584416e-02   1.635254e-01   1.698301e-01
2.317101e+00   2.369870e+00	2	  -4.875745e-02   1.668769e-01   1.738539e-01
2.404208e+00   2.461019e+00	2	  -3.894667e-02   1.588378e-01   1.635430e-01
2.491173e+00   2.552168e+00	2	  -2.239743e-02   1.427122e-01   1.444590e-01
2.577996e+00   2.643317e+00	2	  -4.831640e-03   1.226583e-01   1.227534e-01
2.664678e+00   2.734466e+00	2	   9.259226e-03   1.028140e-01   1.032301e-01
2.751220e+00   2.825615e+00	2	   1.736355e-02   8.630674e-02   8.803605e-02
2.837623e+00   2.916764e+00	2	   1.927077e-02   7.440406e-02   7.685913e-02
2.923887e+00   3.007912e+00	2	   1.682964e-02   6.609254e-02   6.820162e-02
3.010013e+00   3.099061e+00	2	   1.315215e-02   5.832015e-02   5.978477e-02
3.096001e+00   3.190210e+00	2	   1.145030e-02   4.696500e-02   4.834067e-02
3.181853e+00   3.281359e+00	2	   1.385057e-02   2.833597e-02   3.153991e-02
3.267568e+00   3.372508e+00	2	   2.059300e-02   7.414690e-04   2.060634e-02
3.353148e+00   3.463657e+00	2	   2.993495e-02  -3.449128e-02   4.567000e-02
3.438593e+00   3.554806e+00	2	   3.883791e-02  -7.308207e-02   8.276093e-02
3.523904e+00   3.645954e+00	2	   4.419195e-02  -1.091162e-01   1.177255e-01
3.609082e+00   3.737103e+00	2	   4.406542e-02  -1.372169e-01   1.441188e-01
1.615043e+00   1.640680e+00	3	  -1.827795e-02   1.494731e-01   1.505865e-01
1.703313e+00   1.731828e+00	3	  -1.994353e-02   1.726534e-01   1.738014e-01
1.791435e+00   1.822977e+00	3	  -1.512998e-02   1.847603e-01   1.853787e-01
1.879410e+00   1.914126e+00	3	  -6.341740e-03   1.862277e-01   1.863356e-01
1.967238e+00   2.005275e+00	3	   4.076605e-03   1.781181e-01   1.781648e-01
2.054921e+00   2.096424e+00	3	   1.409951e-02   1.619587e-01   1.625713e-01
2.142458e+00   2.187573e+00	3	   2.213229e-02   1.395429e-01   1.412871e-01
2.229852e+00   2.278722e+00	3	   2.706513e-02   1.127280e-01   1.159315e-01
2.317101e+00   2.369870e+00	3	   2.826771e-02   8.325803e-02   8.792590e-02
2.404208e+00   2.461019e+00	3	   2.553306e-02   5.263994e-02   5.850556e-02
2.491173e+00   2.552168e+00	3	   1.898735e-02   2.208829e-02   2.912752e-02
2.577996e+00   2.643317e+00	3	   8.988191e-03  -7.458048e-03   1.167947e-02
2.664678e+00   2.734466e+00	3	  -3.965808e-03  -3.526250e-02   3.548481e-02
2.751220e+00   2.825615e+00	3	  -1.929619e-02  -6.068791e-02   6.368175e-02
2.837623e+00   2.916764e+00	3	  -3.636747e-02  -8.309882e-02   9.070836e-02
2.923887e+00   3.007912e+00	3	  -5.447282e-02  -1.018010e-01   1.154588e-01
3.010013e+00   3.099061e+00	3	  -7.279341e-02  -1.160391e-01   1.369816e-01
3.096001e+00   3.190210e+00	3	  -9.034760e-02  -1.250553e-01   1.542774e-01
3.181853e+00   3.281359e+00	3	  -1.059482e-01  -1.281954e-01   1.663102e-01
3.267568e+00   3.372508e+00	3	  -1.181850e-01  -1.250342e-01   1.720502e-01
3.353148e+00   3.463657e+00	3	  -1.254470e-01  -1.154890e-01   1.705129e-01
3.438593e+00   3.554806e+00	3	  -1.259949e-01  -9.989574e-02   1.607914e-01
3.523904e+00   3.645954e+00	3	  -1.180893e-01  -7.903586e-02   1.420977e-01
3.609082e+00   3.737103e+00	3	  -1.001692e-01  -5.411805e-02   1.138536e-01
1.615043e+00   1.640680e+00	4	   2.320119e-03   3.790183e-03   4.443922e-03
1.703313e+00   1.731828e+00	4	   2.394867e-03   3.661031e-03   4.374761e-03
1.791435e+00   1.822977e+00	4	   2.413354e-03   3.439622e-03   4.201818e-03
1.879410e+00   1.914126e+00	4	   2.371243e-03   3.135522e-03   3.931195e-03
1.967238e+00   2.005275e+00	4	   2.268995e-03   2.765269e-03   3.577018e-03
2.054921e+00   2.096424e+00	4	   2.112283e-03   2.351080e-03   3.160588e-03
2.142458e+00   2.187573e+00	4	   1.911643e-03   1.918615e-03   2.708406e-03
2.229852e+00   2.278722e+00	4	   1.681288e-03   1.494009e-03   2.249176e-03
2.317101e+00   2.369870e+00	4	   1.437102e-03   1.100589e-03   1.810127e-03
2.404208e+00   2.461019e+00	4	   1.194105e-03   7.558351e-04   1.413214e-03
2.491173e+00   2.552168e+00	4	   9.638221e-04   4.692263e-04   1.071973e-03
2.577996e+00   2.643317e+00	4	   7.521910e-04   2.415452e-04   7.900224e-04
2.664678e+00   2.734466e+00	4	   5.586540e-04   6.594679e-05   5.625329e-04
2.751220e+00   2.825615e+00	4	   3.769252e-04  -6.928072e-05   3.832394e-04
2.837623e+00   2.916764e+00	4	   1.975547e-04  -1.768120e-04   2.651233e-04
2.923887e+00   3.007912e+00	4	   1.185938e-05  -2.662125e-04   2.664766e-04
3.010013e+00   3.099061e+00	4	  -1.837956e-04  -3.408831e-04   3.872753e-04
3.096001e+00   3.190210e+00	4	  -3.847885e-04  -3.970738e-04   5.529284e-04
3.181853e+00   3.281359e+00	4	  -5.775116e-04  -4.254845e-04   7.173261e-04
3.267568e+00   3.372508e+00	4	  -7.419235e-04  -4.151211e-04   8.501623e-04
3.353148e+00   3.463657e+00	4	  -8.570388e-04  -3.581744e-04   9.288727e-04
3.438593e+00   3.554806e+00	4	  -9.076556e-04  -2.541002e-04   9.425527e-04
3.523904e+00   3.645954e+00	4	  -8.896485e-04  -1.111639e-04   8.965668e-04
3.609082e+00   3.737103e+00	4	  -8.111965e-04   5.539775e-05   8.130859e-04
1.615043e+00   1.640680e+00	5	  -2.154160e-02  -7.817553e-02   8.108918e-02
1.703313e+00   1.731828e+00	5	  -2.483675e-02  -6.488274e-02   6.947398e-02
1.791435e+00   1.822977e+00	5	  -2.689053e-02  -5.024970e-02   5.699239e-02
1.879410e+00   1.914126e+00	5	  -2.764086e-02  -3.506982e-02   4.465321e-02
1.967238e+00   2.005275e+00	5	  -2.712108e-02  -2.017541e-02   3.380237e-02
2.054921e+00   2.096424e+00	5	  -2.544981e-02  -6.362213e-03   2.623301e-02
2.142458e+00   2.187573e+00	5	  -2.280623e-02   5.692912e-03   2.350603e-02
2.229852e+00   2.278722e+00	5	  -1.939285e-02   1.551023e-02   2.483243e-02
2.317101e+00   2.369870e+00	5	  -1.539215e-02   2.286683e-02   2.756465e-02
2.404208e+00   2.461019e+00	5	  -1.092710e-02   2.782196e-02   2.989085e-02
2.491173e+00   2.552168e+00	5	  -6.038295e-03   3.069347e-02   3.128179e-02
2.577996e+00   2.643317e+00	5	  -6.895890e-04   3.197725e-02   3.198469e-02
2.664678e+00   2.734466e+00	5	   5.191278e-03   3.221279e-02   3.262841e-02
2.751220e+00   2.825615e+00	5	   1.164065e-02   3.181431e-02   3.387705e-02
2.837623e+00   2.916764e+00	5	   1.857271e-02   3.090449e-02   3.605597e-02
2.923887e+00   3.007912e+00	5	   2.570865e-02   2.920162e-02   3.890591e-02
3.010013e+00   3.099061e+00	5	   3.255552e-02   2.601322e-02   4.167193e-02
3.096001e+00   3.190210e+00	5	   3.846084e-02   2.037242e-02   4.352324e-02
3.181853e+00   3.281359e+00	5	   4.274358e-02   1.131426e-02   4.421567e-02
3.267568e+00   3.372508e+00	5	   4.486540e-02  -1.767032e-03   4.490018e-02
3.353148e+00   3.463657e+00	5	   4.457254e-02  -1.879499e-02   4.837316e-02
3.438593e+00   3.554806e+00	5	   4.192813e-02  -3.886641e-02   5.717137e-02
3.523904e+00   3.645954e+00	5	   3.718821e-02  -6.040231e-02   7.093237e-02
3.609082e+00   3.737103e+00	5	   3.055272e-02  -8.161152e-02   8.714303e-02
1.615043e+00   1.640680e+00	6	   6.241601e-02   1.015638e-01   1.192097e-01
1.703313e+00   1.731828e+00	6	   6.436900e-02   9.804698e-02   1.172884e-01
1.791435e+00   1.822977e+00	6	   6.479796e-02   9.207335e-02   1.125890e-01
1.879410e+00   1.914126e+00	6	   6.359253e-02   8.390410e-02   1.052801e-01
1.967238e+00   2.005275e+00	6	   6.077284e-02   7.398495e-02   9.574503e-02
2.054921e+00   2.096424e+00	6	   5.649939e-02   6.291094e-02   8.455748e-02
2.142458e+00   2.187573e+00	6	   5.106277e-02   5.136655e-02   7.242878e-02
2.229852e+00   2.278722e+00	6	   4.485043e-02   4.004681e-02   6.012743e-02
2.317101e+00   2.369870e+00	6	   3.829219e-02   2.957045e-02   4.838081e-02
2.404208e+00   2.461019e+00	6	   3.179175e-02   2.039999e-02   3.777400e-02
2.491173e+00   2.552168e+00	6	   2.565657e-02   1.278568e-02   2.866589e-02
2.577996e+00   2.643317e+00	6	   2.004269e-02   6.747564e-03   2.114802e-02
2.664678e+00   2.734466e+00	6	   1.493181e-02   2.103940e-03   1.507931e-02
2.751220e+00   2.825615e+00	6	   1.015317e-02  -1.456363e-03   1.025709e-02
2.837623e+00   2.916764e+00	6	   5.452920e-03  -4.272391e-03   6.927312e-03
2.923887e+00   3.007912e+00	6	   5.990747e-04  -6.605445e-03   6.632555e-03
3.010013e+00   3.099061e+00	6	  -4.505371e-03  -8.559874e-03   9.673149e-03
3.096001e+00   3.190210e+00	6	  -9.738832e-03  -1.005693e-02   1.399952e-02
3.181853e+00   3.281359e+00	6	  -1.474382e-02  -1.087434e-02   1.832024e-02
3.267568e+00   3.372508e+00	6	  -1.899631e-02  -1.074287e-02   2.182359e-02
3.353148e+00   3.463657e+00	6	  -2.195195e-02  -9.468470e-03   2.390691e-02
3.438593e+00   3.554806e+00	6	  -2.322364e-02  -7.034656e-03   2.426569e-02
3.523904e+00   3.645954e+00	6	  -2.272016e-02  -3.642445e-03   2.301028e-02
3.609082e+00   3.737103e+00	6	  -2.067704e-02   3.325698e-04   2.067972e-02
1.615043e+00   1.640680e+00	7	  -6.852394e-02  -1.816848e-02   7.089164e-02
1.703313e+00   1.731828e+00	7	  -5.173209e-02  -2.898900e-02   5.930068e-02
1.791435e+00   1.822977e+00	7	  -3.337237e-02  -3.746315e-02   5.017173e-02
1.879410e+00   1.914126e+00	7	  -1.472953e-02  -4.334138e-02   4.577591e-02
1.967238e+00   2.005275e+00	7	   2.659989e-03  -4.644934e-02   4.652545e-02
2.054921e+00   2.096424e+00	7	   1.725456e-02  -4.669894e-02   4.978464e-02
2.142458e+00   2.187573e+00	7	   2.780216e-02  -4.412014e-02   5.214928e-02
2.229852e+00   2.278722e+00	7	   3.363084e-02  -3.890950e-02   5.142939e-02
2.317101e+00   2.369870e+00	7	   3.486879e-02  -3.148192e-02   4.697812e-02
2.404208e+00   2.461019e+00	7	   3.252787e-02  -2.250394e-02   3.955363e-02
2.491173e+00   2.552168e+00	7	   2.839993e-02  -1.288301e-02   3.118538e-02
2.577996e+00   2.643317e+00	7	   2.474993e-02  -3.691938e-03   2.502378e-02
2.664678e+00   2.734466e+00	7	   2.383823e-02   3.977620e-03   2.416780e-02
2.751220e+00   2.825615e+00	7	   2.735776e-02   9.214594e-03   2.886790e-02
2.837623e+00   2.916764e+00	7	   3.591552e-02   1.149556e-02   3.771037e-02
2.923887e+00   3.007912e+00	7	   4.870545e-02   1.083415e-02   4.989589e-02
3.010013e+00   3.099061e+00	7	   6.349715e-02   7.806525e-03   6.397523e-02
3.096001e+00   3.190210e+00	7	   7.699714e-02   3.414461e-03   7.707281e-02
3.181853e+00   3.281359e+00	7	   8.553514e-02  -1.197650e-03   8.554352e-02
3.267568e+00   3.372508e+00	7	   8.591011e-02  -5.086661e-03   8.606057e-02
3.353148e+00   3.463657e+00	7	   7.613915e-02  -7.777928e-03   7.653539e-02
3.438593e+00   3.554806e+00	7	   5.582896e-02  -9.317008e-03   5.660105e-02
3.523904e+00   3.645954e+00	7	   2.597063e-02  -1.004209e-02   2.784452e-02
3.609082e+00   3.737103e+00	7	  -1.184566e-02  -1.015852e-02   1.560498e-02
1.615043e+00   1.640680e+00	8	  -4.555389e+00   6.694378e+00   8.097300e+00
1.703313e+00   1.731828e+00	8	  -2.791156e+00   5.888554e+00   6.516565e+00
1.791435e+00   1.822977e+00	8	  -1.198098e+00   4.893496e+00   5.038030e+00
1.879410e+00   1.914126e+00	8	   1.575311e-01   3.783585e+00   3.786863e+00
1.967238e+00   2.005275e+00	8	   1.227483e+00   2.639689e+00   2.911129e+00
2.054921e+00   2.096424e+00	8	   1.985953e+00   1.540941e+00   2.513664e+00
2.142458e+00   2.187573e+00	8	   2.431897e+00   5.555645e-01   2.494549e+00
2.229852e+00   2.278722e+00	8	   2.588454e+00  -2.679153e-01   2.602282e+00
2.317101e+00   2.369870e+00	8	   2.499018e+00  -9.073207e-01   2.658632e+00
2.404208e+00   2.461019e+00	8	   2.220186e+00  -1.369444e+00   2.608564e+00
2.491173e+00   2.552168e+00	8	   1.812509e+00  -1.687061e+00   2.476159e+00
2.577996e+00   2.643317e+00	8	   1.330788e+00  -1.909639e+00   2.327599e+00
2.664678e+00   2.734466e+00	8	   8.161158e-01  -2.088525e+00   2.242317e+00
2.751220e+00   2.825615e+00	8	   2.918334e-01  -2.259268e+00   2.278039e+00
2.837623e+00   2.916764e+00	8	  -2.351795e-01  -2.425529e+00   2.436903e+00
2.923887e+00   3.007912e+00	8	  -7.679354e-01  -2.550048e+00   2.663169e+00
3.010013e+00   3.099061e+00	8	  -1.309337e+00  -2.557588e+00   2.873259e+00
3.096001e+00   3.190210e+00	8	  -1.852132e+00  -2.352092e+00   2.993782e+00
3.181853e+00   3.281359e+00	8	  -2.372685e+00  -1.845732e+00   3.006054e+00
3.267568e+00   3.372508e+00	8	  -2.831290e+00  -9.920188e-01   3.000050e+00
3.353148e+00   3.463657e+00	8	  -3.179089e+00   1.889665e-01   3.184700e+00
3.438593e+00   3.554806e+00	8	  -3.368455e+00   1.605519e+00   3.731512e+00
3.523904e+00   3.645954e+00	8	  -3.361656e+00   3.116404e+00   4.583962e+00
3.609082e+00   3.737103e+00	8	  -3.133400e+00   4.576338e+00   5.546266e+00
