Response amplitude operators ----- File created by OW3D-Seakeeping ----- Mon Oct 30 16:08:19 2023
	Number of frequencies:24
	Froude number:1.514456e-02
	Beta:1.300000e+02
1.615043e+00   1.640680e+00	1	  -6.084728e-01   1.712777e-01   6.321196e-01
1.703313e+00   1.731828e+00	1	  -4.541512e-01   1.806526e-01   4.887624e-01
1.791435e+00   1.822977e+00	1	  -3.082006e-01   1.800089e-01   3.569185e-01
1.879410e+00   1.914126e+00	1	  -1.768529e-01   1.711548e-01   2.461116e-01
1.967238e+00   2.005275e+00	1	  -6.520420e-02   1.562530e-01   1.693121e-01
2.054921e+00   2.096424e+00	1	   2.329760e-02   1.375686e-01   1.395274e-01
2.142458e+00   2.187573e+00	1	   8.725426e-02   1.171801e-01   1.460975e-01
2.229852e+00   2.278722e+00	1	   1.275153e-01   9.670027e-02   1.600347e-01
2.317101e+00   2.369870e+00	1	   1.470886e-01   7.706461e-02   1.660542e-01
2.404208e+00   2.461019e+00	1	   1.507134e-01   5.845052e-02   1.616508e-01
2.491173e+00   2.552168e+00	1	   1.441045e-01   4.037079e-02   1.496526e-01
2.577996e+00   2.643317e+00	1	   1.329550e-01   2.195061e-02   1.347548e-01
2.664678e+00   2.734466e+00	1	   1.218696e-01   2.342848e-03   1.218921e-01
2.751220e+00   2.825615e+00	1	   1.134656e-01  -1.882190e-02   1.150161e-01
2.837623e+00   2.916764e+00	1	   1.078999e-01  -4.109595e-02   1.154611e-01
2.923887e+00   3.007912e+00	1	   1.030194e-01  -6.313263e-02   1.208252e-01
3.010013e+00   3.099061e+00	1	   9.519384e-02  -8.294943e-02   1.262635e-01
3.096001e+00   3.190210e+00	1	   8.068002e-02  -9.850577e-02   1.273289e-01
3.181853e+00   3.281359e+00	1	   5.714513e-02  -1.084201e-01   1.225581e-01
3.267568e+00   3.372508e+00	1	   2.483355e-02  -1.125412e-01   1.152486e-01
3.353148e+00   3.463657e+00	1	  -1.311693e-02  -1.120852e-01   1.128501e-01
3.438593e+00   3.554806e+00	1	  -5.146157e-02  -1.092021e-01   1.207203e-01
3.523904e+00   3.645954e+00	1	  -8.456239e-02  -1.061080e-01   1.356824e-01
3.609082e+00   3.737103e+00	1	  -1.083850e-01  -1.041974e-01   1.503476e-01
1.615043e+00   1.640680e+00	2	   5.489948e-01  -1.440844e-01   5.675875e-01
1.703313e+00   1.731828e+00	2	   4.110257e-01  -8.941781e-02   4.206396e-01
1.791435e+00   1.822977e+00	2	   2.840975e-01  -3.196248e-02   2.858899e-01
1.879410e+00   1.914126e+00	2	   1.737189e-01   2.426726e-02   1.754057e-01
1.967238e+00   2.005275e+00	2	   8.410981e-02   7.516910e-02   1.128045e-01
2.054921e+00   2.096424e+00	2	   1.773468e-02   1.170243e-01   1.183604e-01
2.142458e+00   2.187573e+00	2	  -2.502307e-02   1.469978e-01   1.491124e-01
2.229852e+00   2.278722e+00	2	  -4.596291e-02   1.635902e-01   1.699245e-01
2.317101e+00   2.369870e+00	2	  -4.887962e-02   1.669444e-01   1.739530e-01
2.404208e+00   2.461019e+00	2	  -3.905909e-02   1.589101e-01   1.636400e-01
2.491173e+00   2.552168e+00	2	  -2.249068e-02   1.427882e-01   1.445486e-01
2.577996e+00   2.643317e+00	2	  -4.901491e-03   1.227349e-01   1.228327e-01
2.664678e+00   2.734466e+00	2	   9.211427e-03   1.028870e-01   1.032985e-01
2.751220e+00   2.825615e+00	2	   1.733197e-02   8.637236e-02   8.809417e-02
2.837623e+00   2.916764e+00	2	   1.924745e-02   7.445981e-02   7.690727e-02
2.923887e+00   3.007912e+00	2	   1.680759e-02   6.613733e-02   6.823959e-02
3.010013e+00   3.099061e+00	2	   1.312814e-02   5.835355e-02   5.981208e-02
3.096001e+00   3.190210e+00	2	   1.142647e-02   4.698603e-02   4.835547e-02
3.181853e+00   3.281359e+00	2	   1.383384e-02   2.834191e-02   3.153790e-02
3.267568e+00   3.372508e+00	2	   2.059249e-02   7.275609e-04   2.060534e-02
3.353148e+00   3.463657e+00	2	   2.995808e-02  -3.453070e-02   4.571494e-02
3.438593e+00   3.554806e+00	2	   3.888682e-02  -7.315136e-02   8.284508e-02
3.523904e+00   3.645954e+00	2	   4.426197e-02  -1.092159e-01   1.178441e-01
3.609082e+00   3.737103e+00	2	   4.414652e-02  -1.373421e-01   1.442628e-01
1.615043e+00   1.640680e+00	3	  -1.831956e-02   1.494294e-01   1.505482e-01
1.703313e+00   1.731828e+00	3	  -2.000252e-02   1.726094e-01   1.737645e-01
1.791435e+00   1.822977e+00	3	  -1.520467e-02   1.847218e-01   1.853465e-01
1.879410e+00   1.914126e+00	3	  -6.428292e-03   1.861999e-01   1.863109e-01
1.967238e+00   2.005275e+00	3	   3.983688e-03   1.781047e-01   1.781492e-01
2.054921e+00   2.096424e+00	3	   1.400674e-02   1.619609e-01   1.625655e-01
2.142458e+00   2.187573e+00	3	   2.204639e-02   1.395599e-01   1.412905e-01
2.229852e+00   2.278722e+00	3	   2.699224e-02   1.127567e-01   1.159425e-01
2.317101e+00   2.369870e+00	3	   2.821282e-02   8.329365e-02   8.794200e-02
2.404208e+00   2.461019e+00	3	   2.549959e-02   5.267633e-02   5.852371e-02
2.491173e+00   2.552168e+00	3	   1.897703e-02   2.211881e-02   2.914394e-02
2.577996e+00   2.643317e+00	3	   9.001124e-03  -7.440090e-03   1.167798e-02
2.664678e+00   2.734466e+00	3	  -3.931035e-03  -3.526334e-02   3.548178e-02
2.751220e+00   2.825615e+00	3	  -1.924243e-02  -6.071306e-02   6.368945e-02
2.837623e+00   2.916764e+00	3	  -3.629899e-02  -8.315280e-02   9.073040e-02
2.923887e+00   3.007912e+00	3	  -5.439547e-02  -1.018871e-01   1.154983e-01
3.010013e+00   3.099061e+00	3	  -7.271462e-02  -1.161590e-01   1.370413e-01
3.096001e+00   3.190210e+00	3	  -9.027615e-02  -1.252083e-01   1.543597e-01
3.181853e+00   3.281359e+00	3	  -1.058936e-01  -1.283783e-01   1.664164e-01
3.267568e+00   3.372508e+00	3	  -1.181560e-01  -1.252404e-01   1.721801e-01
3.353148e+00   3.463657e+00	3	  -1.254501e-01  -1.157085e-01   1.706639e-01
3.438593e+00   3.554806e+00	3	  -1.260320e-01  -1.001154e-01   1.609570e-01
3.523904e+00   3.645954e+00	3	  -1.181563e-01  -7.924022e-02   1.422671e-01
3.609082e+00   3.737103e+00	3	  -1.002545e-01  -5.429085e-02   1.140108e-01
1.615043e+00   1.640680e+00	4	   2.318101e-03   3.763335e-03   4.419986e-03
1.703313e+00   1.731828e+00	4	   2.389684e-03   3.633460e-03   4.348865e-03
1.791435e+00   1.822977e+00	4	   2.404772e-03   3.412583e-03   4.174763e-03
1.879410e+00   1.914126e+00	4	   2.359322e-03   3.110340e-03   3.903923e-03
1.967238e+00   2.005275e+00	4	   2.254126e-03   2.743208e-03   3.550532e-03
2.054921e+00   2.096424e+00	4	   2.095167e-03   2.333203e-03   3.135851e-03
2.142458e+00   2.187573e+00	4	   1.893238e-03   1.905665e-03   2.686244e-03
2.229852e+00   2.278722e+00	4	   1.662707e-03   1.486341e-03   2.230203e-03
2.317101e+00   2.369870e+00	4	   1.419501e-03   1.098167e-03   1.794702e-03
2.404208e+00   2.461019e+00	4	   1.178566e-03   7.583043e-04   1.401443e-03
2.491173e+00   2.552168e+00	4	   9.512695e-04   4.760578e-04   1.063741e-03
2.577996e+00   2.643317e+00	4	   7.433664e-04   2.522061e-04   7.849850e-04
2.664678e+00   2.734466e+00	4	   5.541468e-04   8.004536e-05   5.598981e-04
2.751220e+00   2.825615e+00	4	   3.772542e-04  -5.194177e-05   3.808132e-04
2.837623e+00   2.916764e+00	4	   2.032595e-04  -1.563282e-04   2.564233e-04
2.923887e+00   3.007912e+00	4	   2.355041e-05  -2.428311e-04   2.439705e-04
3.010013e+00   3.099061e+00	4	  -1.654758e-04  -3.153719e-04   3.561484e-04
3.096001e+00   3.190210e+00	4	  -3.593159e-04  -3.710952e-04   5.165458e-04
3.181853e+00   3.281359e+00	4	  -5.447214e-04  -4.018178e-04   6.768892e-04
3.267568e+00   3.372508e+00	4	  -7.022728e-04  -3.975875e-04   8.070086e-04
3.353148e+00   3.463657e+00	4	  -8.117999e-04  -3.511958e-04   8.845098e-04
3.438593e+00   3.554806e+00	4	  -8.589671e-04  -2.619723e-04   8.980278e-04
3.523904e+00   3.645954e+00	4	  -8.404138e-04  -1.372777e-04   8.515518e-04
3.609082e+00   3.737103e+00	4	  -7.648983e-04   9.057977e-06   7.649520e-04
1.615043e+00   1.640680e+00	5	  -2.139926e-02  -7.834492e-02   8.121487e-02
1.703313e+00   1.731828e+00	5	  -2.474366e-02  -6.503499e-02   6.958304e-02
1.791435e+00   1.822977e+00	5	  -2.684313e-02  -5.037931e-02   5.708440e-02
1.879410e+00   1.914126e+00	5	  -2.763360e-02  -3.517299e-02   4.472980e-02
1.967238e+00   2.005275e+00	5	  -2.714681e-02  -2.025032e-02   3.386775e-02
2.054921e+00   2.096424e+00	5	  -2.550035e-02  -6.409100e-03   2.629343e-02
2.142458e+00   2.187573e+00	5	  -2.287299e-02   5.671910e-03   2.356574e-02
2.229852e+00   2.278722e+00	5	  -1.946753e-02   1.551150e-02   2.489159e-02
2.317101e+00   2.369870e+00	5	  -1.546738e-02   2.288595e-02   2.762258e-02
2.404208e+00   2.461019e+00	5	  -1.099695e-02   2.785451e-02   2.994673e-02
2.491173e+00   2.552168e+00	5	  -6.098512e-03   3.073582e-02   3.133501e-02
2.577996e+00   2.643317e+00	5	  -7.375557e-04   3.202714e-02   3.203563e-02
2.664678e+00   2.734466e+00	5	   5.156847e-03   3.226952e-02   3.267896e-02
2.751220e+00   2.825615e+00	5	   1.162023e-02   3.187838e-02   3.393024e-02
2.837623e+00   2.916764e+00	5	   1.856657e-02   3.097669e-02   3.611472e-02
2.923887e+00   3.007912e+00	5	   2.571731e-02   2.928164e-02   3.897172e-02
3.010013e+00   3.099061e+00	5	   3.258003e-02   2.609833e-02   4.174423e-02
3.096001e+00   3.190210e+00	5	   3.850268e-02   2.045654e-02   4.359962e-02
3.181853e+00   3.281359e+00	5	   4.280421e-02   1.138809e-02   4.429321e-02
3.267568e+00   3.372508e+00	5	   4.494567e-02  -1.714740e-03   4.497837e-02
3.353148e+00   3.463657e+00	5	   4.467200e-02  -1.877506e-02   4.845710e-02
3.438593e+00   3.554806e+00	5	   4.204450e-02  -3.888652e-02   5.727042e-02
3.523904e+00   3.645954e+00	5	   3.731706e-02  -6.046499e-02   7.105335e-02
3.609082e+00   3.737103e+00	5	   3.068758e-02  -8.171388e-02   8.728623e-02
1.615043e+00   1.640680e+00	6	   6.241446e-02   1.015641e-01   1.192092e-01
1.703313e+00   1.731828e+00	6	   6.436774e-02   9.804731e-02   1.172880e-01
1.791435e+00   1.822977e+00	6	   6.479700e-02   9.207362e-02   1.125886e-01
1.879410e+00   1.914126e+00	6	   6.359185e-02   8.390429e-02   1.052799e-01
1.967238e+00   2.005275e+00	6	   6.077241e-02   7.398506e-02   9.574484e-02
2.054921e+00   2.096424e+00	6	   5.649917e-02   6.291096e-02   8.455735e-02
2.142458e+00   2.187573e+00	6	   5.106271e-02   5.136649e-02   7.242870e-02
2.229852e+00   2.278722e+00	6	   4.485047e-02   4.004669e-02   6.012739e-02
2.317101e+00   2.369870e+00	6	   3.829230e-02   2.957029e-02   4.838080e-02
2.404208e+00   2.461019e+00	6	   3.179189e-02   2.039981e-02   3.777402e-02
2.491173e+00   2.552168e+00	6	   2.565670e-02   1.278548e-02   2.866592e-02
2.577996e+00   2.643317e+00	6	   2.004281e-02   6.747358e-03   2.114808e-02
2.664678e+00   2.734466e+00	6	   1.493192e-02   2.103721e-03   1.507939e-02
2.751220e+00   2.825615e+00	6	   1.015327e-02  -1.456610e-03   1.025722e-02
2.837623e+00   2.916764e+00	6	   5.453013e-03  -4.272683e-03   6.927566e-03
2.923887e+00   3.007912e+00	6	   5.991548e-04  -6.605795e-03   6.632912e-03
3.010013e+00   3.099061e+00	6	  -4.505320e-03  -8.560281e-03   9.673486e-03
3.096001e+00   3.190210e+00	6	  -9.738836e-03  -1.005737e-02   1.399984e-02
3.181853e+00   3.281359e+00	6	  -1.474391e-02  -1.087476e-02   1.832057e-02
3.267568e+00   3.372508e+00	6	  -1.899651e-02  -1.074321e-02   2.182393e-02
3.353148e+00   3.463657e+00	6	  -2.195228e-02  -9.468657e-03   2.390728e-02
3.438593e+00   3.554806e+00	6	  -2.322409e-02  -7.034624e-03   2.426612e-02
3.523904e+00   3.645954e+00	6	  -2.272072e-02  -3.642154e-03   2.301079e-02
3.609082e+00   3.737103e+00	6	  -2.067767e-02   3.331356e-04   2.068036e-02
1.615043e+00   1.640680e+00	7	  -6.850017e-02  -1.829911e-02   7.090226e-02
1.703313e+00   1.731828e+00	7	  -5.171947e-02  -2.911588e-02   5.935182e-02
1.791435e+00   1.822977e+00	7	  -3.337279e-02  -3.758028e-02   5.025953e-02
1.879410e+00   1.914126e+00	7	  -1.474401e-02  -4.344267e-02   4.587648e-02
1.967238e+00   2.005275e+00	7	   2.631526e-03  -4.652920e-02   4.660356e-02
2.054921e+00   2.096424e+00	7	   1.721345e-02  -4.675285e-02   4.982100e-02
2.142458e+00   2.187573e+00	7	   2.775102e-02  -4.414516e-02   5.214321e-02
2.229852e+00   2.278722e+00	7	   3.357344e-02  -3.890442e-02   5.138803e-02
2.317101e+00   2.369870e+00	7	   3.480991e-02  -3.144711e-02   4.691109e-02
2.404208e+00   2.461019e+00	7	   3.247316e-02  -2.244072e-02   3.947268e-02
2.491173e+00   2.552168e+00	7	   2.835594e-02  -1.279274e-02   3.110810e-02
2.577996e+00   2.643317e+00	7	   2.472436e-02  -3.575053e-03   2.498149e-02
2.664678e+00   2.734466e+00	7	   2.384020e-02   4.122143e-03   2.419395e-02
2.751220e+00   2.825615e+00	7	   2.739799e-02   9.388856e-03   2.896205e-02
2.837623e+00   2.916764e+00	7	   3.600597e-02   1.170111e-02   3.785955e-02
2.923887e+00   3.007912e+00	7	   4.885813e-02   1.106898e-02   5.009630e-02
3.010013e+00   3.099061e+00	7	   6.372195e-02   8.061299e-03   6.422983e-02
3.096001e+00   3.190210e+00	7	   7.729900e-02   3.668807e-03   7.738602e-02
3.181853e+00   3.281359e+00	7	   8.591127e-02  -9.772017e-04   8.591683e-02
3.267568e+00   3.372508e+00	7	   8.634825e-02  -4.945742e-03   8.648978e-02
3.353148e+00   3.463657e+00	7	   7.661768e-02  -7.769627e-03   7.701062e-02
3.438593e+00   3.554806e+00	7	   5.631869e-02  -9.493940e-03   5.711330e-02
3.523904e+00   3.645954e+00	7	   2.643704e-02  -1.044748e-02   2.842652e-02
3.609082e+00   3.737103e+00	7	  -1.144184e-02  -1.081987e-02   1.574755e-02
1.615043e+00   1.640680e+00	8	  -4.563786e+00   6.700168e+00   8.106812e+00
1.703313e+00   1.731828e+00	8	  -2.797221e+00   5.894141e+00   6.524212e+00
1.791435e+00   1.822977e+00	8	  -1.201855e+00   4.898652e+00   5.043932e+00
1.879410e+00   1.914126e+00	8	   1.559424e-01   3.788110e+00   3.791319e+00
1.967238e+00   2.005275e+00	8	   1.227811e+00   2.643431e+00   2.914661e+00
2.054921e+00   2.096424e+00	8	   1.987848e+00   1.543807e+00   2.516918e+00
2.142458e+00   2.187573e+00	8	   2.434944e+00   5.575282e-01   2.497958e+00
2.229852e+00   2.278722e+00	8	   2.592211e+00  -2.668176e-01   2.605906e+00
2.317101e+00   2.369870e+00	8	   2.503061e+00  -9.070060e-01   2.662325e+00
2.404208e+00   2.461019e+00	8	   2.224152e+00  -1.369808e+00   2.612131e+00
2.491173e+00   2.552168e+00	8	   1.816130e+00  -1.688012e+00   2.479458e+00
2.577996e+00   2.643317e+00	8	   1.333904e+00  -1.911125e+00   2.330601e+00
2.664678e+00   2.734466e+00	8	   8.186660e-01  -2.090550e+00   2.245131e+00
2.751220e+00   2.825615e+00	8	   2.938207e-01  -2.261884e+00   2.280888e+00
2.837623e+00   2.916764e+00	8	  -2.337399e-01  -2.428798e+00   2.440019e+00
2.923887e+00   3.007912e+00	8	  -7.670689e-01  -2.553984e+00   2.666689e+00
3.010013e+00   3.099061e+00	8	  -1.309148e+00  -2.562084e+00   2.877177e+00
3.096001e+00   3.190210e+00	8	  -1.852813e+00  -2.356869e+00   2.997957e+00
3.181853e+00   3.281359e+00	8	  -2.374481e+00  -1.850327e+00   3.010294e+00
3.267568e+00   3.372508e+00	8	  -2.834432e+00  -9.958459e-01   3.004282e+00
3.353148e+00   3.463657e+00	8	  -3.183709e+00   1.865016e-01   3.189167e+00
3.438593e+00   3.554806e+00	8	  -3.374514e+00   1.604874e+00   3.736705e+00
3.523904e+00   3.645954e+00	8	  -3.368905e+00   3.117787e+00   4.590219e+00
3.609082e+00   3.737103e+00	8	  -3.141398e+00   4.579677e+00   5.553542e+00
