Hydrodynamic coefficients ----- File created by OW3D-Seakeeping ----- Thu Jun  1 15:16:38 2023
	Number of frequencies:3
	Froude number:3.811629e-01
1.682275e+01   7.531995e+00	1	1	   7.781348e+02  -7.751936e+03
1.777501e+01   9.414994e+00	1	1	   2.666152e+02  -4.103138e+03
1.865687e+01   1.129799e+01	1	1	   1.074072e+02  -2.329897e+03
1.682275e+01   7.531995e+00	3	1	   5.522923e+02  -4.515839e+03
1.777501e+01   9.414994e+00	3	1	   2.017052e+02  -2.415726e+03
1.865687e+01   1.129799e+01	3	1	   8.780607e+01  -1.397827e+03
1.682275e+01   7.531995e+00	1	3	  -5.518917e+02   4.494252e+03
1.777501e+01   9.414994e+00	1	3	  -2.017898e+02   2.404567e+03
1.865687e+01   1.129799e+01	1	3	  -8.796157e+01   1.391827e+03
1.682275e+01   7.531995e+00	3	3	   2.208081e+03  -2.267609e+04
1.777501e+01   9.414994e+00	3	3	   7.479767e+02  -1.198570e+04
1.865687e+01   1.129799e+01	3	3	   2.967989e+02  -6.788350e+03
